央视,#genre#
CCTV-1,http://39.134.24.162/dbiptv.sn.chinamobile.com/PLTV/88888890/224/3221225804/index.m3u8
CCTV-2,http://39.134.24.162/dbiptv.sn.chinamobile.com/PLTV/88888890/224/3221226195/index.m3u8
CCTV-2,http://39.134.24.162/dbiptv.sn.chinamobile.com/PLTV/88888890/224/3221226224/index.m3u8
CCTV-3,http://39.134.67.226:80/PLTV/88888888/224/3221225799/index.m3u8
CCTV-4,http://39.134.24.162/dbiptv.sn.chinamobile.com/PLTV/88888890/224/3221226191/index.m3u8
CCTV-5,http://39.134.24.161/dbiptv.sn.chinamobile.com/PLTV/88888890/224/3221226395/index.m3u8
CCTV-5+,http://39.134.24.162/dbiptv.sn.chinamobile.com/PLTV/88888890/224/3221225761/index.m3u8
CCTV-6,http://39.134.24.162/dbiptv.sn.chinamobile.com/PLTV/88888890/224/3221226393/index.m3u8
CCTV-7,http://dbiptv.sn.chinamobile.com/PLTV/88888888/224/3221226192/1.m3u8
CCTV-8,http://120.196.232.124:8088/rrs03.hw.gmcc.net/PLTV/651/224/3221226715/1.m3u8
CCTV-9,http://39.134.24.162/dbiptv.sn.chinamobile.com/PLTV/88888890/224/3221226197/index.m3u8
CCTV-10,http://39.134.24.162/dbiptv.sn.chinamobile.com/PLTV/88888890/224/3221226189/index.m3u8
CCTV-11,http://dbiptv.sn.chinamobile.com/PLTV/88888888/224/3221226240/1.m3u8
CCTV-12,http://cfss.cc/api/ysp/cctv12.m3u8
CCTV-13,http://39.134.24.162/dbiptv.sn.chinamobile.com/PLTV/88888890/224/3221226233/index.m3u8
CCTV-14,http://39.134.24.166/dbiptv.sn.chinamobile.com/PLTV/88888890/224/3221226193/index.m3u8
CCTV-15,http://39.134.24.162/dbiptv.sn.chinamobile.com/PLTV/88888890/224/3221225785/index.m3u8
CCTV-16,http://39.134.24.162/dbiptv.sn.chinamobile.com/PLTV/88888888/224/3221226921/1.m3u8
CCTV-17,http://dbiptv.sn.chinamobile.com/PLTV/88888890/224/3221226198/index.m3u8
CCTV-1,http://dbiptv.sn.chinamobile.com/PLTV/88888890/224/3221226010/index.m3u8
CCTV-1,http://dbiptv.sn.chinamobile.com/PLTV/88888890/224/3221225804/index.m3u8
CCTV-1,http://dbiptv.sn.chinamobile.com/PLTV/88888890/224/3221226583/index.m3u8
CCTV-1,http://dbiptv.sn.chinamobile.com/PLTV/88888890/224/3221226231/index.m3u8
CCTV-2,http://dbiptv.sn.chinamobile.com/PLTV/88888890/224/3221226195/index.m3u8
CCTV-2,http://dbiptv.sn.chinamobile.com/PLTV/88888890/224/3221226224/index.m3u8
CCTV-3,http://dbiptv.sn.chinamobile.com/PLTV/88888890/224/3221226397/index.m3u8
CCTV-4,http://dbiptv.sn.chinamobile.com/PLTV/88888890/224/3221226191/index.m3u8
CCTV-4,http://dbiptv.sn.chinamobile.com/PLTV/88888890/224/3221226223/index.m3u8
CCTV-5,http://dbiptv.sn.chinamobile.com/PLTV/88888890/224/3221226395/index.m3u8
CCTV-5+,http://dbiptv.sn.chinamobile.com/PLTV/88888890/224/3221225761/index.m3u8
CCTV-5+,http://dbiptv.sn.chinamobile.com/PLTV/88888890/224/3221226221/index.m3u8
CCTV-6,http://dbiptv.sn.chinamobile.com/PLTV/88888890/224/3221226393/index.m3u8
CCTV-6,http://dbiptv.sn.chinamobile.com/PLTV/88888890/224/3221226011/index.m3u8
CCTV-7,http://dbiptv.sn.chinamobile.com/PLTV/88888890/224/3221226192/index.m3u8
CCTV-8,http://dbiptv.sn.chinamobile.com/PLTV/88888890/224/3221226391/index.m3u8
CCTV-8,http://dbiptv.sn.chinamobile.com/PLTV/88888890/224/3221226012/index.m3u8
CCTV-9,http://dbiptv.sn.chinamobile.com/PLTV/88888890/224/3221226197/index.m3u8
CCTV-10,http://dbiptv.sn.chinamobile.com/PLTV/88888890/224/3221226189/index.m3u8
CCTV-11,http://dbiptv.sn.chinamobile.com/PLTV/88888890/224/3221226240/index.m3u8
CCTV-12,http://dbiptv.sn.chinamobile.com/PLTV/88888890/224/3221226190/index.m3u8
CCTV-13,http://dbiptv.sn.chinamobile.com/PLTV/88888890/224/3221226233/index.m3u8
CCTV-14,http://dbiptv.sn.chinamobile.com/PLTV/88888890/224/3221226193/index.m3u8
CCTV-15,http://dbiptv.sn.chinamobile.com/PLTV/88888890/224/3221225785/index.m3u8
CCTV-16,http://dbiptv.sn.chinamobile.com/PLTV/88888890/224/3221226921/index.m3u8
CCTV-17,http://dbiptv.sn.chinamobile.com/PLTV/88888890/224/3221226198/index.m3u8
CGTN,http://dbiptv.sn.chinamobile.com/PLTV/88888890/224/3221225745/index.m3u8
世界地理,http://dbiptv.sn.chinamobile.com/PLTV/88888890/224/3221226947/index.m3u8
兵器科技,http://dbiptv.sn.chinamobile.com/PLTV/88888890/224/3221226975/index.m3u8
央视台球,http://dbiptv.sn.chinamobile.com/PLTV/88888890/224/3221226956/index.m3u8
央视文化精品,http://dbiptv.sn.chinamobile.com/PLTV/88888890/224/3221226981/index.m3u8
怀旧剧场,http://dbiptv.sn.chinamobile.com/PLTV/88888890/224/3221226972/index.m3u8
电视指南,http://dbiptv.sn.chinamobile.com/PLTV/88888890/224/3221226987/index.m3u8
第一剧场,http://dbiptv.sn.chinamobile.com/PLTV/88888890/224/3221226959/index.m3u8
风云剧场,http://dbiptv.sn.chinamobile.com/PLTV/88888890/224/3221226950/index.m3u8
风云足球,http://dbiptv.sn.chinamobile.com/PLTV/88888890/224/3221226984/index.m3u8
风云音乐,http://dbiptv.sn.chinamobile.com/PLTV/88888890/224/3221226953/index.m3u8
高尔夫网球,http://dbiptv.sn.chinamobile.com/PLTV/88888890/224/3221226978/index.m3u8

卫视,#genre#
湖南卫视,http://120.196.232.124:8088/rrs03.hw.gmcc.net/PLTV/651/224/3221226698/1.m3u8
湖南卫视,http://111.59.63.32:9901/tsfile/live/1028_1.m3u8
东方卫视,http://120.196.232.124:8088/rrs03.hw.gmcc.net/PLTV/651/224/3221226734/1.m3u8
浙江卫视,http://hw-m-l.cztv.com/channels/lantian/channel001/1080p.m3u8
浙江卫视,http://hw-m-l.cztv.com/channels/lantian/channel01/1080p.m3u8
浙江卫视,http://ali-m-l.cztv.com/channels/lantian/channel01/1080p.m3u8
浙江卫视,http://hw-m-l.cztv.com/channels/lantian/channel01/1080p.m3u8?k=1a7559a51eeb880b021619a07f463ac4&t=1577153787
浙江卫视,http://hw-m-l.cztv.com/channels/lantian/channel01/1080p.m3u8?k
浙江卫视,http://120.196.232.124:8088/rrs03.hw.gmcc.net/PLTV/651/224/3221226690/1.m3u8
浙江卫视,http://221.213.43.82:8888/newlive/live/hls/24/live.m3u8
浙江卫视,http://111.59.63.32:9901/tsfile/live/1031_1.m3u8
浙江卫视,http://hw-m-l.cztv.com/channels/lantian/channel13/1080p.m3u8
江苏卫视,http://120.196.232.124:8088/rrs03.hw.gmcc.net/PLTV/651/224/3221226692/1.m3u8
江苏卫视,http://39.134.24.166/dbiptv.sn.chinamobile.com/PLTV/88888890/224/3221226200/index.m3u8?
江苏卫视,http://111.59.63.32:9901/tsfile/live/1025_1.m3u8
深圳卫视,http://221.213.43.82:8888/newlive/live/hls/28/live.m3u8
深圳卫视,http://120.196.232.124:8088/rrs03.hw.gmcc.net/PLTV/651/224/3221226688/1.m3u8
深圳卫视,http://111.59.63.32:9901/tsfile/live/1033_1.m3u8
北京卫视,http://39.134.24.161/dbiptv.sn.chinamobile.com/PLTV/88888890/224/3221225796/index.m3u8?
北京卫视,http://120.196.232.124:8088/rrs03.hw.gmcc.net/PLTV/651/224/3221226719/1.m3u8
北京卫视,https://live.goodiptv.club/api/bestv.php?id=bjwshd8m/8000000
北京卫视,http://221.213.43.82:8888/newlive/live/hls/19/live.m3u8
北京卫视,http://111.59.63.32:9901/tsfile/live/1030_1.m3u8
天津卫视,http://120.196.232.124:8088/rrs03.hw.gmcc.net/PLTV/651/224/3221226686/1.m3u8
天津卫视,http://111.59.63.32:9901/tsfile/live/1047_1.m3u8
重庆卫视,http://120.196.232.124:8088/rrs03.hw.gmcc.net/PLTV/651/224/3221226680/1.m3u8
广东卫视,https://live.goodiptv.club/api/bestv.php?id=gdwshd8m/8000000
广东卫视,http://221.213.43.82:8888/newlive/live/hls/21/live.m3u8
东南卫视,http://api3.52tb.xyz/info?id=29&token=20230227aesvnb
东南卫视,http://120.196.232.124:8088/rrs03.hw.gmcc.net/PLTV/651/224/3221226670/1.m3u8?
湖北卫视,http://120.196.232.124:8088/rrs03.hw.gmcc.net/PLTV/651/224/3221226713/1.m3u8
湖北卫视,http://111.59.63.32:9901/tsfile/live/1044_1.m3u8
安徽卫视,http://111.59.63.32:9901/tsfile/live/1027_1.m3u8
安徽卫视,http://120.196.232.124:8088/rrs03.hw.gmcc.net/PLTV/651/224/3221226655/1.m3u8
四川卫视,http://111.59.63.32:9901/tsfile/live/1029_1.m3u8
四川卫视,http://221.213.43.82:8888/newlive/live/hls/32/live.m3u8
山东卫视,https://live.goodiptv.club/api/bestv.php?id=sdws8m/8000000
山东卫视,http://221.213.43.82:8888/newlive/live/hls/30/live.m3u8
山东卫视,http://39.134.24.162/dbiptv.sn.chinamobile.com/PLTV/88888890/224/3221226012/index.m3u8
河南卫视,http://120.196.232.124:8088/rrs03.hw.gmcc.net/PLTV/651/224/3221226668/1.m3u8
河南卫视,http://221.213.43.82:8888/newlive/live/hls/33/live.m3u8
河南卫视,http://media.hndyjyfw.gov.cn/live/jz-hnweishi/live.m3u8
河北卫视,http://120.196.232.124:8088/rrs03.hw.gmcc.net/PLTV/651/224/3221226684/1.m3u8
河北卫视,http://221.213.43.82:8888/newlive/live/hls/45/live.m3u8
河北卫视,http://183.196.25.171:808/hls/16/index.m3u8
河北卫视,http://event.pull.hebtv.com/jishi/weishipindao.m3u8
山西卫视,http://39.134.24.162/dbiptv.sn.chinamobile.com/PLTV/88888890/224/3221225763/index.m3u8?
山西卫视,http://39.134.24.161/dbiptv.sn.chinamobile.com/PLTV/88888890/224/3221225763/index.m3u8?
陕西卫视,http://221.213.43.82:8888/newlive/live/hls/41/live.m3u8
江西卫视,http://111.59.63.32:9901/tsfile/live/1042_1.m3u8
江西卫视,http://120.196.232.124:8088/rrs03.hw.gmcc.net/PLTV/651/224/3221226682/1.m3u8
海南卫视,http://120.196.232.124:8088/rrs03.hw.gmcc.net/PLTV/651/224/3221226679/1.m3u8
海南卫视,http://221.213.43.82:8888/newlive/live/hls/50/live.m3u8
海南卫视,http://39.134.24.161/dbiptv.sn.chinamobile.com/PLTV/88888890/224/3221225769/index.m3u8?
黑龙江卫视,http://39.134.24.161/dbiptv.sn.chinamobile.com/PLTV/88888890/224/3221225802/index.m3u8?
黑龙江卫视,http://39.134.24.161/dbiptv.sn.chinamobile.com/PLTV/88888890/224/3221225802/index.m3u8
黑龙江卫视,http://120.196.232.124:8088/rrs03.hw.gmcc.net/PLTV/651/224/3221226716/1.m3u8
黑龙江卫视,http://39.134.24.162/dbiptv.sn.chinamobile.com/PLTV/88888890/224/3221225802/index.m3u8
辽宁卫视,http://115.149.139.141:10001/tsfile/live/1028_1.m3u8?blog.ntnas.top
辽宁卫视,http://120.196.232.124:8088/rrs03.hw.gmcc.net/PLTV/651/224/3221226689/1.m3u8
吉林卫视,http://111.59.63.32:9901/tsfile/live/1043_1.m3u8
云南卫视,http://tvlive.ynradio.com/live/yunnanweishi/chunks.m3u8
云南卫视,http://tvlive.ynradio.com/live/yunnanweishi/playlist.m3u8
广西卫视,http://221.213.43.82:8888/newlive/live/hls/26/live.m3u8
贵州卫视,http://120.196.232.124:8088/rrs03.hw.gmcc.net/PLTV/651/224/3221226672/1.m3u8
贵州卫视,http://111.59.63.32:9901/tsfile/live/1036_1.m3u8
贵州卫视,http://221.213.43.82:8888/newlive/live/hls/29/live.m3u8
甘肃卫视,http://221.213.43.82:8888/newlive/live/hls/36/live.m3u8
宁夏卫视,http://111.59.63.32:9901/tsfile/live/1040_1.m3u8
青海卫视,http://stream.qhbtv.com/qhws/sd/live.m3u8?_upt=1da074361609506578
青海卫视,http://stream.qhbtv.com/qhws/sd/live.m3u8
三沙卫视,https://pullsstv90080111.ssws.tv/live/SSTV20220729.m3u8
延边卫视,http://live.ybtvyun.com/video/s10016-6f0dfd97912f/index.m3u8
延边卫视,http://live.ybtvyun.com/video/s10006-44f040627ca1/index.m3u8
延边卫视,http://live.ybtvyun.com/video/s10006-90fe76c52091/index.m3u8
新疆卫视,http://111.59.63.32:9901/tsfile/live/1039_1.m3u8
浙江卫视,http://hw-m-l.cztv.com/channels/lantian/channel001/1080p.m3u8
浙江卫视,http://dbiptv.sn.chinamobile.com/PLTV/88888890/224/3221225798/index.m3u8
浙江卫视,http://dbiptv.sn.chinamobile.com/PLTV/88888890/224/3221226199/index.m3u8
天津卫视,http://dbiptv.sn.chinamobile.com/PLTV/88888890/224/3221226204/index.m3u8
湖南卫视,http://dbiptv.sn.chinamobile.com/PLTV/88888890/224/3221225799/index.m3u8
湖南卫视,http://dbiptv.sn.chinamobile.com/PLTV/88888890/224/3221226211/index.m3u8
东方卫视,http://dbiptv.sn.chinamobile.com/PLTV/88888890/224/3221226217/index.m3u8
东方卫视,http://dbiptv.sn.chinamobile.com/PLTV/88888890/224/3221225797/index.m3u8
江苏卫视,http://dbiptv.sn.chinamobile.com/PLTV/88888890/224/3221225800/index.m3u8
江苏卫视,http://dbiptv.sn.chinamobile.com/PLTV/88888890/224/3221226200/index.m3u8
辽宁卫视,http://dbiptv.sn.chinamobile.com/PLTV/88888890/224/3221226201/index.m3u8
辽宁卫视,http://dbiptv.sn.chinamobile.com/PLTV/88888890/224/3221226210/index.m3u8
北京卫视,http://dbiptv.sn.chinamobile.com/PLTV/88888890/224/3221225796/index.m3u8
北京卫视,http://dbiptv.sn.chinamobile.com/PLTV/88888890/224/3221226222/index.m3u8
广东卫视,http://dbiptv.sn.chinamobile.com/PLTV/88888890/224/3221225803/index.m3u8
广东卫视,http://dbiptv.sn.chinamobile.com/PLTV/88888890/224/3221226216/index.m3u8
湖北卫视,http://dbiptv.sn.chinamobile.com/PLTV/88888890/224/3221226194/index.m3u8
湖北卫视,http://dbiptv.sn.chinamobile.com/PLTV/88888890/224/3221226206/index.m3u8
山东卫视,http://dbiptv.sn.chinamobile.com/PLTV/88888890/224/3221226209/index.m3u8
深圳卫视,http://dbiptv.sn.chinamobile.com/PLTV/88888890/224/3221225801/index.m3u8
深圳卫视,http://dbiptv.sn.chinamobile.com/PLTV/88888890/224/3221226205/index.m3u8
重庆卫视,http://dbiptv.sn.chinamobile.com/PLTV/88888890/224/3221226202/index.m3u8
安徽卫视,http://dbiptv.sn.chinamobile.com/PLTV/88888890/224/3221226196/index.m3u8
安徽卫视,http://dbiptv.sn.chinamobile.com/PLTV/88888890/224/3221226203/index.m3u8
黑龙江卫视,http://dbiptv.sn.chinamobile.com/PLTV/88888890/224/3221225802/index.m3u8
黑龙江卫视,http://dbiptv.sn.chinamobile.com/PLTV/88888890/224/3221226215/index.m3u8
江苏卫视,http://39.134.24.166/dbiptv.sn.chinamobile.com/PLTV/88888890/224/3221226200/index.m3u8
深圳卫视,http://39.134.24.166/dbiptv.sn.chinamobile.com/PLTV/88888890/224/3221226205/index.m3u8
北京卫视,http://39.134.24.162/dbiptv.sn.chinamobile.com/PLTV/88888890/224/3221225796/index.m3u8
黑龙江卫视,http://39.134.24.162/dbiptv.sn.chinamobile.com/PLTV/88888890/224/3221225802/index.m3u8
江苏卫视,http://39.134.24.166/dbiptv.sn.chinamobile.com/PLTV/88888890/224/3221226200/index.m3u8
深圳卫视,http://39.134.24.166/dbiptv.sn.chinamobile.com/PLTV/88888890/224/3221226205/index.m3u8
北京卫视,http://39.134.24.162/dbiptv.sn.chinamobile.com/PLTV/88888890/224/3221225796/index.m3u8
黑龙江卫视,http://39.134.24.162/dbiptv.sn.chinamobile.com/PLTV/88888890/224/3221225802/index.m3u8
河北卫视,http://event.pull.hebtv.com/jishi/weishipindao.m3u8
云南卫视,http://tvlive.ynradio.com/live/yunnanweishi/chunks.m3u8
青海卫视,http://stream.qhbtv.com/qhws/sd/live.m3u8
三沙卫视,https://pullsstv90080111.ssws.tv/live/SSTV20220729.m3u8
延边卫视,http://live.ybtvyun.com/video/s10006-44f040627ca1/index.m3u8

陕西,#genre#
陕西一套,http://39.134.24.166/dbiptv.sn.chinamobile.com/PLTV/88888888/224/3221226357/1.m3u8
陕西四套,http://39.134.24.166/dbiptv.sn.chinamobile.com/PLTV/88888888/224/3221226360/1.m3u8
陕西五套,http://39.134.24.166/dbiptv.sn.chinamobile.com/PLTV/88888888/224/3221226361/1.m3u8
陕西六套,http://39.134.24.166/dbiptv.sn.chinamobile.com/PLTV/88888888/224/3221226362/1.m3u8
陕西七套,http://39.134.24.166/dbiptv.sn.chinamobile.com/PLTV/88888888/224/3221226363/1.m3u8
农林卫视,http://39.134.24.166/dbiptv.sn.chinamobile.com/PLTV/88888890/224/3221226229/index.m3u8
西安丝路,http://39.134.24.166/dbiptv.sn.chinamobile.com/PLTV/88888888/224/3221226370/1.m3u8
安康综合,http://mmitv.top/test/tianma.php?id=akzh
安康公共,http://mmitv.top/test/tianma.php?id=akgg
安康教育,http://mmitv.top/test/tianma.php?id=akjy
保山一套,http://liveynbsdst.chinamcache.com/live/zb01.m3u8?auth_key=1645240615-0-0-65e16b6e5bf26ac5538ac471eff58b55
保山二套,http://liveynbsdst.chinamcache.com/live/zb02.m3u8?auth_key=1645240679-0-0-d67bc97395c69c4381264c996315a24b
咸阳-1,http://39.134.24.166/dbiptv.sn.chinamobile.com/PLTV/88888890/224/3221226372/index.m3u8
铜川-1,http://39.134.24.166/dbiptv.sn.chinamobile.com/PLTV/88888888/224/3221226379/1.m3u8
汉中-1,http://39.134.24.166/dbiptv.sn.chinamobile.com/PLTV/88888888/224/3221226331/1.m3u8
略阳-1,http://39.134.24.166/dbiptv.sn.chinamobile.com/PLTV/88888888/224/3221226322/1.m3u8

广东,#genre#
广东体育,http://player.200877926.top/169l/_17186/itouchgdm3u8.php?id=gdty
广东珠江,http://player.200877926.top/169l/_17186/itouchgdm3u8.php?id=gdzj
广东民生,http://player.200877926.top/169l/_17186/itouchgdm3u8.php?id=gdms
广东新闻,http://player.200877926.top/169l/_17186/itouchgdm3u8.php?id=gdxw
广东移动,http://player.200877926.top/169l/_17186/itouchgdm3u8.php?id=gdyd
广东国际,http://player.200877926.top/169l/_17186/itouchgdm3u8.php?id=gdgj
广东经济,http://player.200877926.top/169l/_17186/itouchgdm3u8.php?id=gdjj
大湾区卫视,http://player.200877926.top/169l/_17186/itouchgdm3u8.php?id=dawanqu
广东综艺4k,http://player.200877926.top/169l/_17186/itouchgdm3u8.php?id=gd4k
广东影视,http://player.200877926.top/169l/_17186/itouchgdm3u8.php?id=gdys
广东少儿,http://player.200877926.top/169l/_17186/itouchgdm3u8.php?id=gdse
广州综合,http://player.200877926.top/169l/gd/gztvm3u8.php?id=gzys
广州新闻,http://player.200877926.top/169l/gd/gztvm3u8.php?id=gzxw
广州竞赛,http://player.200877926.top/169l/gd/gztvm3u8.php?id=gzjs
广州法治,http://player.200877926.top/169l/gd/gztvm3u8.php?id=gzfz
广州体育,http://player.200877926.top/169l/gd/gztvm3u8.php?id=gzzh
南国都市4k,http://player.200877926.top/169l/gd/gztvm3u8.php?id=gzngds
GRTN文化,https://glive.grtn.cn/live/wenhua_test0203.m3u8?auth_key=1617289309-0-0-7b2730980c8860963374597c20ad3935
深圳公共,http://gmxw.7766.org:808/hls/156/index.m3u8
深圳都市,http://livepull-tcyzb.sztv.com.cn/live/dushi01.m3u8
深圳卫视,http://222.240.82.92:9901/tsfile/live/0126_1.m3u8
大湾区卫视,http://angtv.cc/jd/gdjx.php?id=dwqws
深圳都市,http://angtv.cc/jd/gdjx.php?id=szds
深圳电视剧,http://angtv.cc/jd/gdjx.php?id=szdsj
深圳体育健康,http://angtv.cc/jd/gdjx.php?id=szty
深圳体育健康,http://angtv.cc/jd/gdjx.php?id=szty2
深圳卫视,http://115.149.139.141:10001/tsfile/live/1032_1.m3u8
深圳卫视,http://222.240.82.92:9901/tsfile/live/0126_1.m3u8
广东体育,http://218.17.196.234:9901/tsfile/live/1001_1.m3u8
广东文化,https://glive.grtn.cn/live/wenhua_test0203.m3u8?auth_key=1617289309-0-0-7b2730980c8860963374597c20ad3935
广东文化,https://glive.grtn.cn/live/wenhua_test0203.m3u8
广东少儿,https://angtv.cc/test/itouch.php?id=gdse
广东文化,https://glive.grtn.cn/live/wenhua_test0203.m3u8?auth_key=1612881417-0-0-bc7ddba066481bc805fc1e800654e721
河源综合,http://tmpstream.hyrtv.cn/xwzh/sd/live.m3u8
河源公共,http://tmpstream.hyrtv.cn/hygg/sd/live.m3u8
阳江综合,https://live.yjtvw.com:8081/live/smil:yjtv1.smil/chunklist_b1152000.m3u8
阳江公共,https://live.yjtvw.com:8081/live/smil:yjtv2.smil/chunklist_b1152000.m3u8
GRTN文化,https://glive.grtn.cn/live/wenhua_test0203.m3u8?auth_key=1617289309-0-0-7b2730980c8860963374597c20ad3935
GRTN文化,https://glive.grtn.cn/live/wenhua_test0203.m3u8?auth_key=1617289309-0-0-7b2730980c8860963374597c20ad3935
广东体育,http://218.15.229.90:9901/tsfile/live/1001_1.m3u8
广州南国都市,https://justsometime.gztv.com/sec/shenghuos.m3u8
梅州综合,http://pili-live-rtmp.tvliving.gdmztv.com/meizhou-tvliving/mztv1.m3u8
梅州公共,http://pili-live-rtmp.tvliving.gdmztv.com/meizhou-tvliving/mztv2.m3u8
阳江综合,https://live.yjtvw.com:8081/live/smil:yjtv1.smil/chunklist_b1152000.m3u8
阳江公共,https://live.yjtvw.com:8081/live/smil:yjtv2.smil/chunklist_b1152000.m3u8
生活频道,http://hls-ott-zhibo.wasu.tv/live/452/index.m3u8
韶关公共,https://www.sgmsw.cn/videos/tv/201805/1308/9P424TC5M000AFO13CXK6GN6BOA889D2/hls/live.m3u8
清新综合,http://hls.wiseqx.com/live/qxzh.m3u8
清新公共,http://hls.wiseqx.com/live/qxgg.m3u8
广东文化,https://glive.grtn.cn/live/wenhua_test0203.m3u8
生活HD,http://hls-ott-zhibo.wasu.tv/live/452/index.m3u8
惠州综合,http://ye23.vip/z7z8/2021/0752.php?id=1
河源综合,http://tmpstream.hyrtv.cn/xwzh/sd/live.m3u8
河源公共,http://tmpstream.hyrtv.cn/hygg/sd/live.m3u8
揭阳综合,rtmp://rtmp-stjy.sobeylive.com/stjy2020/zhpd?sign=bf98b2873ad5403290a37d16569d7a06&t=639de420
揭阳公共,rtmp://rtmp-stjy.sobeylive.com/stjy2020/ggpd?sign=b9881a0d588081b1979769c128a5e08c&t=639de420
阳江综合,https://live.yjtvw.com:8081/live/smil:yjtv1.smil/chunklist_b3628000.m3u8
阳江综合,https://live.yjtvw.com:8081/live/smil:yjtv1.smil/chunklist_w1166501356_b928000.m3u8
韶关综合,https://www.sgmsw.cn/videos/tv/201805/1308/SB05RIYZOU8JR418AUQOF62CAJQ08D0E/hls/live.m3u8
大湾区卫视,http://dbiptv.sn.chinamobile.com/PLTV/88888890/224/3221226218/index.m3u8
广东公共,http://9.zhxinda.xyz/gdtv.php?pk=1185
广东影视,http://218.17.216.102:9901/tsfile/live/1008_1.m3u8
广州综合,http://player.521fanli.cn/1691/gd/gztvm3u8.php?id=gzzh
广州新闻,https://justsometime.gztv.com/sec/jingsai.m3u8
广州新闻,http://player.521fanli.cn/1691/gd/gztvm3u8.php?id=gzxw
广东影视,http://lu1.cc/c/tv/sjtv/p/migu.php?id=gdys
广州南国都市,http://9.zhxinda.xyz/gz.php?id=shenghuo
广州南国都市,http://player.521fanli.cn/1691/gd/gztvm3u8.php?id=gzngds
广州法治,http://9.zhxinda.xyz/gz.php?id=fazhi
广州法治,http://player.521fanli.cn/1691/gd/gztvm3u8.php?id=gzfz
广州影视,http://player.521fanli.cn/1691/gd/gztvm3u8.php?id=gzys
深圳电视剧,http://218.17.216.102:9901/tsfile/live/1057_1.m3u8
深圳东部,https://lglivepull.sznews.com/live/2646.m3u8
深圳龙岗,https://lglivepull.sznews.com/live/2647.m3u8
深圳众创,https://lglivepull.sznews.com/live/2645.m3u8
梅州综合,http://p2.vzan.com/slowlive/403126774572750089/live.m3u8
梅州二套,http://p2.vzan.com/slowlive/645350022315428297/live.m3u8
广东经济科教,http://9.zhxinda.xyz/gdtv.php?pk=1196
广东综艺,http://9.zhxinda.xyz/gdtv.php?pk=1198
广东少儿,http://9.zhxinda.xyz/gdtv.php?pk=1200
广东新闻,http://9.zhxinda.xyz/gdtv.php?pk=1186
广东文化,https://glive.grtn.cn/live/wenhua_test0203.m3u8?auth_key=1617289309-0-0-7b2730980c8860963374597c20ad3935?zguangd
广东文化,https://glive.grtn.cn/live/wenhua_test0203.m3u8?auth_key=1612881417-0-0-bc7ddba066481bc805fc1e800654e721?zguangd
广东生活HD,http://hls-ott-zhibo.wasu.tv/live/452/index.m3u8?zguangd
深圳东部,https://lglivepull.sznews.com/live/2646.m3u8?zguangd
韶关综合,https://www.sgmsw.cn/videos/tv/201805/1308/SB05RIYZOU8JR418AUQOF62CAJQ08D0E/hls/live.m3u8?zguangd
韶关公共,https://www.sgmsw.cn/videos/tv/201805/1308/9P424TC5M000AFO13CXK6GN6BOA889D2/hls/live.m3u8?zguangd
清新综合,http://hls.wiseqx.com/live/qxzh.m3u8?zguangd
阳江1,https://live.yjtvw.com:8081/live/smil:yjtv1.smil/chunklist_w1166501356_b928000.m3u8?zguangd
阳江综合,https://live.yjtvw.com:8081/live/smil:yjtv1.smil/chunklist_b1152000.m3u8?zguangd
河源综合,http://tmpstream.hyrtv.cn/xwzh/sd/live.m3u8?zguangd
河源综艺,http://tmpstream.hyrtv.cn/xwzh/playlist.m3u8?_upt=407e01941606112151?zguangd
河源公共,http://tmpstream.hyrtv.cn/hygg/playlist.m3u8?_upt=c9befc281606112199?zguangd
河源公共,http://tmpstream.hyrtv.cn/hygg/sd/live.m3u8?zguangd

江西,#genre#
赣州新闻,http://wb.jxgztv.com/live/gztv1.flv
赣州公共,http://wb.jxgztv.com/live/gztv2.flv
赣州教育,http://wb.jxgztv.com/live/gztv3.flv
南昌新闻综合,http://live.cooltv.top/tv/nctv.php?id=1
南昌文旅,http://live.cooltv.top/tv/nctv.php?id=2
南昌资讯,http://live.cooltv.top/tv/nctv.php?id=3
上饶综合,http://live02.jxtvcn.com.cn/live-jxtvcn/ganyun_shangrao1.m3u8
上饶经济,http://live02.jxtvcn.com.cn/live-jxtvcn/ganyun_shangrao2.m3u8
上饶鄱阳,http://pili-live-hls.poyang.jxxw.com.cn/pyxrmtzx/poyang.m3u8
上饶余干,http://live02.jxtvcn.com.cn/live-jxtvcn/ganyun_yugan.m3u8
新余新闻综合,http://live02.jxtvcn.com.cn/live-jxtvcn/ganyun_xinyu_hd1.m3u8
新余公共,http://live02.jxtvcn.com.cn/live-jxtvcn/ganyun_xinyu_hd2.m3u8
新余教育,http://live02.jxtvcn.com.cn/live-jxtvcn/ganyun_xinyu_hd3.m3u8
井冈山综合,http://live02.jxtvcn.com.cn/live-jxtvcn/ganyun_jgs.m3u8
都昌综合,http://live02.jxtvcn.com.cn/live-jxtvcn/ganyun_duchang.m3u8
彭泽综合,http://live02.jxtvcn.com.cn/live-jxtvcn/ganyun_pengze.m3u8
永修一套,http://live02.jxtvcn.com.cn/live-jxtvcn/ganyun_yongxiu.m3u8
庐山综合,http://live02.jxtvcn.com.cn/live-jxtvcn/ganyun_lushan.m3u8
武宁综合,http://live02.jxtvcn.com.cn/live-jxtvcn/ganyun_wuning.m3u8
万载综合,http://live02.jxtvcn.com.cn/live-jxtvcn/ganyun_wanzai.m3u8
分宜综合,http://live02.jxtvcn.com.cn/live-jxtvcn/ganyun_fenyi_tv.m3u8
鄱阳综合,http://pili-live-hls.poyang.jxxw.com.cn/pyxrmtzx/poyang.m3u8
万载综合频道,http://live-echotv.cdnvideo.ru/echotv/echotv.sdp/playlist.m3u8
湖南,#genre#
湖南卫视,http://120.132.122.244:10413/hls/1/index.m3u8
湖南都市,http://120.132.122.244:10413/hls/3/index.m3u8
湖南经视,http://120.132.122.244:10413/hls/2/index.m3u8
湖南电影,http://120.132.122.244:10413/hls/7/index.m3u8
湖南电视剧,http://120.132.122.244:10413/hls/4/index.m3u8
潇湘电影,http://120.132.122.244:10413/hls/5/index.m3u8
宜章综合,http://hnyz.chinashadt.com:2036/live/tv1.stream/playlist.m3u8
宜章综合,http://hnyz.chinashadt.com:2036/live/tv1.stream/chunklist_w2084740082.m3u8
张家界1台,http://stream.zjjrtv.com/zjjtv1/playlist.m3u8?_upt=58d7e8211638940948
张家界2台,http://stream.zjjrtv.com/zjjtv2/playlist.m3u8?_upt=83ed3eb91638941175
湘潭综合,http://live.hnxttv.com:9601/live/xwzh/800K/tzwj_video.m3u8
湘潭公共,http://live.hnxttv.com:9601/live/dspd/800K/tzwj_video.m3u8
新田电视台,https://hlsv2.quklive.com/live/1625110020460086/index.m3u8
宜章综合,http://hnyz.chinashadt.com:2036/live/stream:tv1.stream_360p/playlist.m3u8
张家界公共,http://stream.zjjrtv.com/zjjtv2/hd/live.m3u8
张家界新闻,http://stream.zjjrtv.com/zjjtv1/hd/live.m3u8
长沙影视,http://35848.hlsplay.aodianyun.com/guangdianyun_35848/tv_channel_350.flv?auth_key=1936694127-0-0-f081dadf4de8780d84d51755eb65e516
长沙政法,http://35848.hlsplay.aodianyun.com/guangdianyun_35848/tv_channel_348.flv?auth_key=1936693647-0-0-09a2ab1e7112296d76b1c37999a5cf32
湘潭新闻综合,http://live.hnxttv.com:9601/live/xwzh/800K/tzwj_video.m3u8
湘潭公共频道,http://live.hnxttv.com:9601/live/dspd/800K/tzwj_video.m3u8
岳阳公共,http://live.hnxttv.com:9601/live/dspd/800K/tzwj_video.m3u8
平乡电视台,http://hbpx.chinashadt.com:2036/live/px1.stream/playlist.m3u8
长沙政法频道,http://35848.hlsplay.aodianyun.com/guangdianyun_35848/tv_channel_348.flv?auth_key=1936693647-0-0-09a2ab1e7112296d76b1c37999a5cf32
长沙影视频道,http://35848.hlsplay.aodianyun.com/guangdianyun_35848/tv_channel_350.flv?auth_key=1936694127-0-0-f081dadf4de8780d84d51755eb65e516
长沙磁浮电视,https://hls.quklive.com/live/1551751256158751/index.m3u8
长沙地铁电视,https://hls.quklive.com/live/1551751084371710/index.m3u8
长沙移动电视,https://hls.quklive.com/live/1551750947083772/index.m3u8
宜章新闻综合,http://hnyz.chinashadt.com:2036/live/stream:tv1.stream/playlist.m3u8
通道时政,http://live.tongdaotv.com:8087/live/tdtv.m3u8
湖北,#genre#
武汉新闻综合,http://stream.appwuhan.com/1tzb/sd/live.m3u8
武汉生活,http://stream.appwuhan.com/3tzb/sd/live.m3u8
武汉电视剧,http://stream.appwuhan.com/2tzb/sd/live.m3u8
武汉经济,http://stream.appwuhan.com/4tzb/sd/live.m3u8
武汉外语,http://stream.appwuhan.com/6tzb/sd/live.m3u8
武汉少儿,http://stream.appwuhan.com/7tzb/sd/live.m3u8
武汉教育,http://stream.appwuhan.com/jyzb/sd/live.m3u8
武汉文体,http://stream.appwuhan.com/5tzb/sd/live.m3u8
荆门新闻,http://stream.jmtv.com.cn/xwzh/sd/live.m3u8
荆门公共,http://stream.jmtv.com.cn/ngpd/sd/live.m3u8
荆门教育,http://stream.jmtv.com.cn/ggsh/sd/live.m3u8
十堰新闻,http://p8.vzan.com/slowlive/034028687228317362/live.m3u8
江夏新闻综合,http://59.175.226.142:280/gb28181/xwzh.m3u8
十堰新闻,rtmp://r2bj.weizan.cn/v/351104_837056569960221505?zhubd
十堰公共,rtmp://r2bj.weizan.cn/v/351104_694292401376336037?zhubd
十堰经济旅游,rtmp://r2bj.weizan.cn/v/351104_791122427715011838?zhubd
郧阳新闻综合,http://58.19.198.159:2021/hls1.m3u8

江苏,#genre#
苏州新闻综合,http://tylive.kan0512.com/norecord/norecord_csztv1.m3u8
苏州社会经济,http://tylive.kan0512.com/norecord/norecord_csztv2.m3u8
苏州文化生活,http://tylive.kan0512.com/norecord/norecord_csztv3.m3u8
苏州生活资讯,http://tylive.kan0512.com/norecord/norecord_csztv5.m3u8
苏州4K超清,http://liveshowbak2.kan0512.com/ksz-norecord/csztv4k_4k.m3u8
南京信息,http://live.nbs.cn/channels/njtv/xxpd/m3u8:500k/live.m3u8
南京娱乐,http://live.nbs.cn/channels/njtv/ylpd/m3u8:500k/live.m3u8
南京少儿,http://live.nbs.cn/channels/njtv/sepd/500k.m3u8
南京少儿,http://live.nbs.cn/channels/njtv/sepd/m3u8:500k/live.m3u8
南京十八,http://live.nbs.cn/channels/njtv/sbpd/m3u8:500k/live.m3u8
无锡新闻综合,http://stream.thmz.com/wxtv1/playlist.m3u8
无锡都市资讯,http://stream.thmz.com/wxtv3/playlist.m3u8
无锡经济,http://stream.thmz.com/wxtv5/playlist.m3u8
无锡生活,http://stream.thmz.com/wxtv4/playlist.m3u8
无锡娱乐,http://stream.thmz.com/wxtv2/playlist.m3u8
无锡新闻综合,http://stream.thmz.com/wxtv1/sd/live.m3u8
无锡都市资讯,http://stream.thmz.com/wxtv3/sd/live.m3u8
无锡经济,http://stream.thmz.com/wxtv5/sd/live.m3u8
无锡生活,http://stream.thmz.com/wxtv4/sd/live.m3u8
无锡娱乐,http://stream.thmz.com/wxtv2/sd/live.m3u8
江阴新闻综合,http://221.228.70.101:8080/live/xinwen.m3u8
宜兴新闻综合,http://yixing-tv-ori-hls.jstv.com/yixing-tv-ori/yixing_xw.m3u8
宜兴紫砂,http://yixing-tv-ori-hls.jstv.com/yixing-tv-ori/yixing_zs.m3u8
常熟综合,http://cstvplay.21cs.cn/cstv1/cstv1.m3u8
常熟民生经济,http://cstvplay.21cs.cn/cstv2/cstv2.m3u8
昆山新闻综合,http://pili-publish.living.ksrmtzx.com/ksntv/ks-tv.m3u8
南通新闻综合,http://zjtv-wshls.homecdn.com/live/7cc9.m3u8
南通都市生活,http://zjtv-wshls.homecdn.com/live/7cc7.m3u8
南通影视娱乐,http://zjtv-wshls.homecdn.com/live/7cc5.m3u8
南通崇川综合,http://zjtv-wshls.homecdn.com/live/7cc1.m3u8
徐州新闻综合,http://stream3.huaihai.tv/xwzh1t/sd/live.m3u8
徐州经济生活,http://stream3.huaihai.tv/xz2t/sd/live.m3u8
徐州公共频道,http://stream3.huaihai.tv/xz4t/sd/live.m3u8
徐州文艺影视,http://stream3.huaihai.tv/xz3t/sd/live.m3u8
扬州新闻综合,http://zjtv-wshls.homecdn.com/live/8bb.m3u8
扬州城市,http://zjtv-wshls.homecdn.com/live/8bd.m3u8
扬州生活,http://zjtv-wshls.homecdn.com/live/8bf.m3u8
扬州邗江,http://zjtv-wshls.homecdn.com/live/8c3.m3u8
连云港新闻综合,http://live.lyg1.com/zhpd/sd/live.m3u8
连云港公共,http://live.lyg1.com/ggpd/sd/live.m3u8
镇江新闻综合,http://zjtv-wshls.homecdn.com/live/2aa50.m3u8
镇江民生,http://zjtv-wshls.homecdn.com/live/2aa16.m3u8
靖江新闻综合,http://visit.jjbctv.com:1935/live/xwzhpc/playlist.m3u8
靖江新闻综合,http://visit.jjbctv.com:1935/live/xwzhmb/playlist.m3u8
张家港新闻,http://3gvod.zjgonline.com.cn:1935/live/xinwenzonghe2/playlist.m3u8
张家港民生,http://3gvod.zjgonline.com.cn:1935/live/shehuishenghuo2/playlist.m3u8
大丰新闻,http://dafeng-tv-hls.cm.jstv.com/dafeng-tv/dafengyt.m3u8
大丰公共,http://dafeng-tv-hls.cm.jstv.com/dafeng-tv/dafenget.m3u8
如东新闻,http://rudong-tv-hls.cm.jstv.com/rudong-tv/rdxwzh.m3u8
溧水新闻,http://live.lsrmw.cn/zhpd/sd/live.m3u8
溧水影视,http://live.lsrmw.cn/ysyl/sd/live.m3u8
张家港综合,http://3gvod.zjgonline.com.cn:1935/live/xinwenzonghe2/playlist.m3u8?checkedby:hlscat.com
靖江电视,http://58.222.151.43:1935/live/xwzhpc/playlist.m3u8
句容新闻综合,http://jrlive.jrntv.com/live/_definst_/jrxwzhs/playlist.m3u8
句容生活,http://jrlive.jrntv.com/live/_definst_/shenghuos/playlist.m3u8
句容党建,http://jrlive.jrntv.com/live/_definst_/dangjians/playlist.m3u8
句容影视,http://jrlive.jrntv.com/live/_definst_/yingshis/playlist.m3u8
铜山三农,http://stream.tstvxmt.com/ts2/sd/live.m3u8
南京娱乐,http://live.nbs.cn/channels/njtv/ylpd/500k.m3u8?zjiangsd
南京十八,http://live.nbs.cn/channels/njtv/sbpd/500k.m3u8?zjiangsd
南京信息,http://live.nbs.cn/channels/njtv/xxpd/500k.m3u8?zjiangsd
苏州4k,http://liveshowbak2.kan0512.com/ksz-norecord/csztv4k_4k.m3u8?zjiangsd
淮安新闻综合,http://live1.habctv.com/zhpdsl/sd/live.m3u8?zjiangsd
淮安公共频道,http://live1.habctv.com/ggpdsl/sd/live.m3u8?zjiangsd
淮安影院娱乐,http://live1.habctv.com/ysylsl/sd/live.m3u8?zjiangsd
无锡新闻综合,http://stream.thmz.com/wxtv1/sd/live.m3u8?zjiangsd
无锡娱乐,http://stream.thmz.com/wxtv2/sd/live.m3u8?zjiangsd
无锡都市资讯,http://stream.thmz.com/wxtv3/sd/live.m3u8?zjiangsd
无锡生活,http://stream.thmz.com/wxtv4/sd/live.m3u8?zjiangsd
无锡经济,http://stream.thmz.com/wxtv5/sd/live.m3u8?zjiangsd
张家港新闻综合,http://3gvod.zjgonline.com.cn:1935/live/xinwenzonghe2/playlist.m3u8?zjiangsd
张家港民生频道,http://3gvod.zjgonline.com.cn:1935/live/shehuishenghuo2/playlist.m3u8?zjiangsd
滨海新闻综合,http://jsbh.chinashadt.com:2036/live/bh11.stream/playlist.m3u8?zjiangsd
大丰公共频道,http://dafeng-tv-hls.cm.jstv.com/dafeng-tv/dafenget.m3u8?zjiangsd
东台综合频道,http://dongtai-tv-hls.cm.jstv.com/dongtai-tv/dongtaizonghe.m3u8?zjiangsd
盐都综合频道,http://yandu-tv-hls.cm.jstv.com/yandu-tv/yanduzh.m3u8?zjiangsd
如东新闻综合,http://rudong-tv-hls.cm.jstv.com/rudong-tv/rdxwzh.m3u8?zjiangsd
江宁新闻频道,https://jiangning-tv-hls.cm.jstv.com/jiangning-tv/jnxwzh.m3u8?zjiangsd
溧水新闻综合,http://live.lsrmw.cn/zhpd/sd/live.m3u8?zjiangsd
溧水影院娱乐,http://live.lsrmw.cn/ysyl/sd/live.m3u8?zjiangsd
宜兴新闻频道,http://yixing-tv-ori-hls.jstv.com/yixing-tv-ori/yixing_xw.m3u8?zjiangsd
宜兴紫砂频道,http://yixing-tv-ori-hls.jstv.com/yixing-tv-ori/yixing_zs.m3u8?zjiangsd
淮阴综合频道,http://huaiyin-tv-hls.cm.jstv.com/huaiyin-tv/huaiyinf.m3u8?zjiangsd
淮阴影院频道,http://huaiyin-tv-hls.cm.jstv.com/huaiyin-tv/hyys.m3u8?zjiangsd
金湖新闻综合,http://jinhu-tv-hls.cm.jstv.com/jinhu-tv/jinhuzh.m3u8?zjiangsd
金坛新闻频道,http://jintan-tv-ori-hls.jstv.com/jintan-tv-ori/jintan_xw.m3u8?zjiangsd
武进新闻频道,https://live.wjyanghu.com/live/CH1.m3u8?zjiangsd
武进生活频道,https://live.wjyanghu.com/live/CH2.m3u8?zjiangsd
泗洪新闻综合,http://sihong-tv-hls.cm.jstv.com/sihong-tv/sihongxinwenzonghe.m3u8?zjiangsd
句容新闻综合,http://jrlive.jrntv.com/live/_definst_/jrxwzhs/playlist.m3u8?zjiangsd
句容生活频道,http://jrlive.jrntv.com/live/_definst_/shenghuos/playlist.m3u8?zjiangsd
句容影院频道,http://jrlive.jrntv.com/live/_definst_/yingshis/playlist.m3u8?zjiangsd
句容党建频道,http://jrlive.jrntv.com/live/_definst_/dangjians/playlist.m3u8?zjiangsd
睢宁综合频道,http://suining-tv-hls.cm.jstv.com/suining-tv/suiningzh.m3u8?zjiangsd
睢宁生活教育,http://suining-tv-hls.cm.jstv.com/suining-tv/suiningsh.m3u8?zjiangsd
睢宁三农频道,http://suining-tv-hls.cm.jstv.com/suining-tv/suiningsn.m3u8?zjiangsd
睢宁资讯频道,http://suining-tv-hls.cm.jstv.com/suining-tv/suiningys.m3u8?zjiangsd
姜堰新闻综合,https://jiangyan-tv-hls.cm.jstv.com/jiangyan-tv/jiangyanzh.m3u8?zjiangsd
沭阳综合频道,http://shuyang-tv-hls.cm.jstv.com/shuyang-tv/shuyangzh.m3u8?zjiangsd
扬中新闻频道,http://yangzhong-tv-hls.cm.jstv.com/yangzhong-tv/xwzh.m3u8?zjiangsd
扬中党建民生,http://yangzhong-tv-hls.cm.jstv.com/yangzhong-tv/yzdj.m3u8?zjiangsd
东海新闻频道,http://donghai-tv-hls.cm.jstv.com/donghai-tv/donghaixinwensp.m3u8?zjiangsd
贾汪新闻频道,http://jiawang-tv-hls.cm.jstv.com/jiawang-tv/jwxw.m3u8?zjiangsd
贾汪旅游频道,http://jiawang-tv-hls.cm.jstv.com/jiawang-tv/jwly.m3u8?zjiangsd
沛县新闻综合,http://peixian-tv-hls.cm.jstv.com/peixian-tv/pxzh.m3u8?zjiangsd
泗阳综合频道,http://siyang-tv-hls.cm.jstv.com/siyang-tv/siyangzh.m3u8?zjiangsd
泗阳资讯频道,http://siyang-tv-hls.cm.jstv.com/siyang-tv/siyangzx.m3u8?zjiangsd
赣榆新闻综合,http://ganyu-tv-hls.cm.jstv.com/ganyu-tv/ganyutv.m3u8?zjiangsd

北京,#genre#
北京卫视,http://39.134.24.166/dbiptv.sn.chinamobile.com/PLTV/88888888/224/3221226222/1.m3u8
北京体育休闲,http://ainm.cc/a/play/php/gehua.php?id=bjtyxx
BRTV新闻,http://live.funhillrm.com/5/sd/live.m3u8
北京通州,http://pull.dayuntongzhou.com/live/tztv.m3u8
房山无线频道,http://live.funhillrm.com/2/sd/live.m3u8
通州电视台,http://pull.dayuntongzhou.com/live/tztv.m3u8
房山有线频道,http://live.funhillrm.com/5/sd/live.m3u8

上海,#genre#
新闻综合,http://58.32.40.25:8000/udp/239.45.3.209:5140
都市频道,http://58.32.40.25:8000/udp/239.45.3.236:5140
纪实人文,http://58.32.40.25:8000/udp/239.45.3.212:5140
东方影视,http://58.32.40.25:8000/udp/239.45.3.237:5140
上海教育,http://58.32.40.25:8000/udp/239.45.0.13:5140
第一财经,http://58.32.40.25:8000/udp/239.45.3.211:5140
金色学堂,http://58.32.40.25:8000/udp/239.45.0.9:5140
五星体育,http://58.32.40.25:8000/udp/239.45.3.210:5140
东方财经,http://58.32.40.25:8000/udp/239.45.0.17:5140
七彩戏剧,http://58.32.40.25:8000/udp/239.45.0.16:5140
法治天地,http://58.32.40.25:8000/udp/239.45.1.46:5140
游戏风云,http://58.32.40.25:8000/udp/239.45.3.131:5140
乐游频道,http://58.32.40.25:8000/udp/239.45.3.135:5140
嘉定电视台,https://pili-live-hls.wdit.com.cn/wditlive/15472c98517744b994e85c9c60cc93cf6a3b.m3u8
崇明电视台,https://pili-live-hls.wdit.com.cn/wditlive/c038f4fafbdf4f97ba74c74ad67259b931ee.m3u8
点掌财经,https://wsvideo.aniu.tv/live/aniu/playlist.m3u8

浙江,#genre#
钱江频道,http://hw-m-l.cztv.com/channels/lantian/channel002/1080p.m3u8
经济生活,http://hw-m-l.cztv.com/channels/lantian/channel003/1080p.m3u8
教科影视,http://hw-m-l.cztv.com/channels/lantian/channel004/1080p.m3u8
影视娱乐,http://hw-m-l.cztv.com/channels/lantian/channel005/1080p.m3u8
民生休闲,http://hw-m-l.cztv.com/channels/lantian/channel006/1080p.m3u8
公共新闻,http://hw-m-l.cztv.com/channels/lantian/channel007/1080p.m3u8
少儿频道,http://hw-m-l.cztv.com/channels/lantian/channel008/1080p.m3u8
浙江少儿,http://hw-m-l.cztv.com/channels/lantian/channel008/1080p.m3u8
浙江少儿,http://hw-m-l.cztv.com/channels/lantian/channel08/1080p.m3u8?k=1a7559a51eeb880b021619a07f463ac4&t=1577153787
留学世界,http://hw-m-l.cztv.com/channels/lantian/channel009/1080p.m3u8
国际频道,http://hw-m-l.cztv.com/channels/lantian/channel010/1080p.m3u8
杭州萧山综合,http://l.cztvcloud.com/channels/lantian/SXxiaoshan3/720p.m3u8
杭州余杭平安,http://l.cztvcloud.com/channels/lantian/SXyuhang2/720p.m3u8
杭州余杭未来,http://l.cztvcloud.com/channels/lantian/SXyuhang3/720p.m3u8
杭州余杭综合,http://l.cztvcloud.com/channels/lantian/SXyuhang1/720p.m3u8
宁波新闻,http://www.372583307.top:4022/udp/233.50.201.168:5140
宁波经济,http://www.372583307.top:4022/udp/233.50.201.178:5140
宁波都市,http://www.372583307.top:4022/udp/233.50.201.179:5140
宁波影视,http://www.372583307.top:4022/udp/233.50.201.180:5140
宁波少儿,http://www.372583307.top:4022/udp/233.50.201.181:5140
数码时代,http://hw-m-l.cztv.com/channels/lantian/channel012/1080p.m3u8
北仑电视台,http://play-sh.quklive.com/live/1626327731714170.m3u8
苍南新闻综合,http://l.cztvcloud.com/channels/lantian/SXcangnan1/720p.m3u8
常山新闻综合,https://hlsv2.quklive.com/live/1621306190044902/index.m3u8
德清文化生活,http://live.yingxi.tv/channel2/sd/live.m3u8
德清新闻综合,http://live.yingxi.tv/channel1/sd/live.m3u8
洞头综合频道,http://l.cztvcloud.com/channels/lantian/SXdongtou1/720p.m3u8
江山电视台,http://play-sh.quklive.com/live/1623117710666335.m3u8
金华东阳影视,http://204.11.235.251:1935/live_transcoder/ngrp:mohabat.stream_all/playlist.m3u8
金华东阳综合,http://l.cztvcloud.com/channels/lantian/SXdongyang1/720p.m3u8
金华兰溪综合,http://l.cztvcloud.com/channels/lantian/SXlanxi1/720p.m3u8
金华武义综合,http://l.cztvcloud.com/channels/lantian/SXwuyi1/720p.m3u8
丽水缙云综合,http://l.cztvcloud.com/channels/lantian/SXjinyun1/720p.m3u8
丽水龙泉综合,http://l.cztvcloud.com/channels/lantian/SXlongquan1/720p.m3u8
丽水青田综合,http://l.cztvcloud.com/channels/lantian/SXqingtian1/720p.m3u8
丽水庆元综合,http://l.cztvcloud.com/channels/lantian/SXqingyuan1/720p.m3u8
丽水松阳综合,http://l.cztvcloud.com/channels/lantian/SXsongyang1/720p.m3u8
丽水遂昌综合,http://l.cztvcloud.com/channels/lantian/SXsuichang1/720p.m3u8
丽水云和综合,http://l.cztvcloud.com/channels/lantian/SXyunhe1/720p.m3u8
留学世界,http://hw-m-l.cztv.com/channels/lantian/channel09/1080p.m3u8
龙游生活娱乐,http://l.cztvcloud.com/channels/lantian/SXlongyou2/720p.m3u8
龙游新闻综合,http://l.cztvcloud.com/channels/lantian/SXlongyou1/720p.m3u8
宁波象山综合,http://l.cztvcloud.com/channels/lantian/SXxiangshan1/720p.m3u8
宁波鄞州一套,http://pili-publish.yzxw.newaircloud.com/newaircloud-yzxw/yzxw_20190925090843.m3u8
宁波余姚生活,http://l.cztvcloud.com/channels/lantian/SXyuyao2/720p.m3u8
宁波余姚姚江,http://l.cztvcloud.com/channels/lantian/SXyuyao3/720p.m3u8
宁波余姚综合,http://l.cztvcloud.com/channels/lantian/SXyuyao1/720p.m3u8
磐安文化生活,http://hlsv2.quklive.com/live/1626401163709056/index.m3u8
磐安新闻综合,http://hlsv2.quklive.com/live/1626400915947070/index.m3u8
平湖民生休闲,http://l.cztvcloud.com/channels/lantian/SXpinghu2/720p.m3u8
平湖新闻综合,http://l.cztvcloud.com/channels/lantian/SXpinghu1/720p.m3u8
普陀新闻综合,http://l.cztvcloud.com/channels/lantian/SXputuo1/720p.m3u8
衢州开化综合,http://l.cztvcloud.com/channels/lantian/SXkaihua1/720p.m3u8
衢州龙游生活,https://l.cztvcloud.com/channels/lantian/SXlongyou2/720p.m3u8
衢州龙游综合,https://l.cztvcloud.com/channels/lantian/SXlongyou1/720p.m3u8
衢州衢江综合,http://l.cztvcloud.com/channels/lantian/SXqujiang1/720p.m3u8
上虞新商都,http://l.cztvcloud.com/channels/lantian/SXshangyu3/720p.m3u8
绍兴新闻综合,http://live.shaoxing.com.cn/video/s10001-sxhb/index.m3u8
绍兴公共,http://live.shaoxing.com.cn/video/s10001-sxtv2/index.m3u8
绍兴文化影视,http://live.shaoxing.com.cn/video/s10001-sxtv3/index.m3u8
绍兴上虞影视,http://l.cztvcloud.com/channels/lantian/SXshangyu2/720p.m3u8
绍兴上虞综合,http://l.cztvcloud.com/channels/lantian/SXshangyu1/720p.m3u8
绍兴嵊州综合,http://l.cztvcloud.com/channels/lantian/SXshengzhou1/720p.m3u8
天台和合频道,http://hlsv2.quklive.com/live/1617072208961931/index.m3u8
温州永嘉综合,http://l.cztvcloud.com/channels/lantian/SXyongjia1/720p.m3u8
文成二套,http://l.cztvcloud.com/channels/lantian/SXwencheng2/720p.m3u8
文成综合,http://l.cztvcloud.com/channels/lantian/SXwencheng1/720p.m3u8
萧山生活频道,http://l.cztvcloud.com/channels/lantian/SXxiaoshan2/720p.m3u8
萧山新闻综合,http://l.cztvcloud.com/channels/lantian/SXxiaoshan1/720p.m3u8
永康华溪频道,http://hlsv2.quklive.com/live/1625062755227231/index.m3u8
永康新闻综合,http://hlsv2.quklive.com/live/1625061424267104/index.m3u8
舟山嵊泗综合,http://l.cztvcloud.com/channels/lantian/SXshengsi1/720p.m3u8
诸暨新闻综合,http://l.cztvcloud.com/channels/lantian/SXzhuji3/720p.m3u8
浙江钱江都市,http://hw-m-l.cztv.com/channels/lantian/channel002/1080p.m3u8?zzhed
浙江钱江都市,http://hw-m-l.cztv.com/channels/lantian/channel02/720p.m3u8?zzhed
浙江钱江都市,http://hw-m-l.cztv.com/channels/lantian/channel02/360p.m3u8?zzhed
浙江经济生活,http://hw-m-l.cztv.com/channels/lantian/channel003/1080p.m3u8?zzhed
浙江经济生活,http://hw-m-l.cztv.com/channels/lantian/channel03/720p.m3u8?zzhed
浙江经济生活,http://hw-m-l.cztv.com/channels/lantian/channel03/360p.m3u8?zzhed
浙江教科影院,http://hw-m-l.cztv.com/channels/lantian/channel004/1080p.m3u8?zzhed
浙江教科影院,http://hw-m-l.cztv.com/channels/lantian/channel04/720p.m3u8?zzhed
浙江教科影院,http://hw-m-l.cztv.com/channels/lantian/channel04/360p.m3u8?zzhed
浙江民生休闲,http://hw-m-l.cztv.com/channels/lantian/channel006/1080p.m3u8?zzhed
浙江民生休闲,http://hw-m-l.cztv.com/channels/lantian/channel06/720p.m3u8?zzhed
浙江民生休闲,http://hw-m-l.cztv.com/channels/lantian/channel06/360p.m3u8?zzhed
浙江新闻,http://hw-m-l.cztv.com/channels/lantian/channel007/1080p.m3u8?zzhed
浙江新闻,http://hw-m-l.cztv.com/channels/lantian/channel07/720p.m3u8?zzhed
浙江新闻,http://hw-m-l.cztv.com/channels/lantian/channel07/360p.m3u8?zzhed
浙江国际,http://hw-m-l.cztv.com/channels/lantian/channel010/1080p.m3u8?zzhed
浙江国际,http://hw-m-l.cztv.com/channels/lantian/channel10/720p.m3u8?zzhed
浙江国际,http://hw-m-l.cztv.com/channels/lantian/channel10/360p.m3u8?zzhed
数码时代,http://hw-m-l.cztv.com/channels/lantian/channel012/1080p.m3u8?zzhed
数码时代,http://hw-m-l.cztv.com/channels/lantian/channel12/720p.m3u8?zzhed
数码时代,http://hw-m-l.cztv.com/channels/lantian/channel12/360p.m3u8?zzhed
绍兴新闻综合,http://live.shaoxing.com.cn/video/s10001-sxhb/index.m3u8?zzhed
绍兴新闻综合,http://live.shaoxing.com.cn/video/s10001-sxtv1/index.m3u8?zzhed
绍兴文化影院,http://live.shaoxing.com.cn/video/s10001-sxtv3/index.m3u8?zzhed
舟山新闻综合,http://live1.plus.wifizs.cn/xwzh/sd/live.m3u8?zzhed
舟山公共生活,http://live1.plus.wifizs.cn/ggsh/sd/live.m3u8?zzhed
武义新闻综合,http://l.cztvcloud.com/channels/lantian/SXwuyi1/720p.m3u8?zzhed
永康新闻综合,http://hlsv2.quklive.com/live/1625061424267104/index.m3u8?zzhed
平湖新闻综合,http://l.cztvcloud.com/channels/lantian/SXpinghu1/720p.m3u8?zzhed
平湖民生休闲,http://l.cztvcloud.com/channels/lantian/SXpinghu2/720p.m3u8?zzhed
萧山新闻综合,http://l.cztvcloud.com/channels/lantian/SXxiaoshan1/720p.m3u8?zzhed
萧山生活频道,http://l.cztvcloud.com/channels/lantian/SXxiaoshan2/720p.m3u8?zzhed
余杭综合频道,http://l.cztvcloud.com/channels/lantian/SXyuhang1/720p.m3u8?zzhed
余杭未来E频道,http://l.cztvcloud.com/channels/lantian/SXyuhang3/720p.m3u8?zzhed
余姚新闻综合,http://l.cztvcloud.com/channels/lantian/SXyuyao1/720p.m3u8?zzhed
余姚姚江文化,http://l.cztvcloud.com/channels/lantian/SXyuyao3/720p.m3u8?zzhed
嵊州新闻综合,http://l.cztvcloud.com/channels/lantian/SXshengzhou1/720p.m3u8?zzhed
嵊州新闻综合,https://hlsv2.quklive.com/live/1626935015913208/index.m3u8?zzhed
诸暨新闻综合,http://l.cztvcloud.com/channels/lantian/SXzhuji3/720p.m3u8?zzhed
上虞新闻综合,http://l.cztvcloud.com/channels/lantian/SXshangyu1/720p.m3u8?zzhed
上虞文化影院,http://l.cztvcloud.com/channels/lantian/SXshangyu2/720p.m3u8?zzhed
上虞新商都,http://l.cztvcloud.com/channels/lantian/SXshangyu3/720p.m3u8?zzhed
兰溪新闻综合,http://l.cztvcloud.com/channels/lantian/SXlanxi1/720p.m3u8?zzhed

广西,#genre#
广西卫视,http://111.59.63.32:9901/tsfile/live/1003_1.m3u8
广西影视,http://www.51nas.top:4022/udp/239.81.0.250:4056
广西都市,http://www.51nas.top:4022/udp/239.81.0.247:4056
广西公共,http://www.51nas.top:4022/udp/239.81.0.249:4056
广西综艺,http://www.51nas.top:4022/udp/239.81.0.214:4056
广西新闻,http://111.59.63.32:9901/tsfile/live/1007_1.m3u8
广西都市,http://111.59.63.32:9901/tsfile/live/1005_1.m3u8
广西影视,http://111.59.63.32:9901/tsfile/live/1006_1.m3u8
广西综艺,http://111.59.63.32:9901/tsfile/live/1004_1.m3u8
广西综艺,http://116.9.204.242:9901/tsfile/live/0125_1.m3u8
广西影视,http://116.9.204.242:9901/tsfile/live/0124_1.m3u8
广西新闻,http://116.9.204.242:9901/tsfile/live/1001_1.m3u8
广西都市,http://116.9.204.242:9901/tsfile/live/1002_1.m3u8
南宁新闻综合,http://hls.nntv.cn/nnlive/NNTV_NEWS_A.m3u8
南宁影视娱乐,http://hls.nntv.cn/nnlive/NNTV_VOD_A.m3u8
南宁都市生活,http://hls.nntv.cn/nnlive/NNTV_METRO_A.m3u8
南宁公共,http://hls.nntv.cn/nnlive/NNTV_PUB_A.m3u8
罗城综合,http://111.12.75.177:9100/lctvlive/lch.m3u8
南丹综合,http://hlsv2.quklive.com/live/1638263457563164/index.m3u8
南丹电视台,http://hlsv2.quklive.com/live/1606365844464947/index.m3u8
崇左综合,http://111.59.63.32:9901/tsfile/live/1002_1.m3u8
南宁新闻综合,http://hls.nntv.cn/nnlive/NNTV_NEWS_A.m3u8?zguangxd
南宁影娱乐,http://hls.nntv.cn/nnlive/NNTV_VOD_A.m3u8?zguangxd
南宁都市生活,http://hls.nntv.cn/nnlive/NNTV_METRO_A.m3u8?zguangxd
南宁公共,http://hls.nntv.cn/nnlive/NNTV_PUB_A.m3u8?zguangxd
贺州综合,http://zhz.gxhzxw.com:2935/live/HZXW-HD/playlist.m3u8
罗城综合,http://111.12.75.177:9100/lctvlive/lch.m3u8?zguangxd
广西综艺旅游,http://111.59.63.32:9901/tsfile/live/1004_1.m3u8
崇左综合频道,http://111.59.63.32:9901/tsfile/live/1002_1.m3u8

山东,#genre#
山东新闻,http://livealone.iqilu.com/iqilu/ggpdhjOF03kn.flv
山东齐鲁,http://livealone.iqilu.com/iqilu/qlpdhjOF03kn.flv
山东生活,http://livealone.iqilu.com/iqilu/shpdhjOF03kn.flv
山东文旅,http://livealone.iqilu.com/iqilu/yspdhjOF03kn.flv
山东农科,http://livealone.iqilu.com/iqilu/nkpdhjOF03kn.flv
山东综艺,http://livealone.iqilu.com/iqilu/zypdhjOF03kn.flv
山东体育,http://livealone.iqilu.com/iqilu/typdhjOF03kn.flv
山东少儿,http://livealone.iqilu.com/iqilu/sepdhjOF03kn.flv
烟台公共频道,http://live.yantaitv.cn/live/e50f104a4ffe4a41b2217cbda534146f/d86092e69df94668b33390278b061700-1.m3u8
烟台经济科技,http://live.yantaitv.cn/live/27f84144e95a4652ae9e5c211b2a6b55/405f3e33ba384aa0a16014d0becd1261-1.m3u8
烟台新闻综合,http://live.yantaitv.cn/live/3e81a8879da44c5dadf3bd9c10468e1c/9b776d420ee4438199b7657c8eb88f07-1.m3u8
烟台影视频道,http://live.yantaitv.cn/live/e9f1d9045d474c31884d13fa4ffbbd16/a4a9b3704d854756907845107cc56129-1.m3u8
枣庄新闻综合,http://stream.zztvzd.com/1/sd/live.m3u8
枣庄教育频道,http://stream.zztvzd.com/2/sd/live.m3u8
青州综合,http://sdqz.chinashadt.com:2036/live/stream:1.stream/playlist.m3u8
青州文化旅游,http://sdqz.chinashadt.com:2036/live/stream:3.stream/playlist.m3u8
日照新闻综合,http://live.rzw.com.cn/xwzh/sd/live.m3u8
日照公共,http://live.rzw.com.cn/kzpd/sd/live.m3u8
日照科教,http://live.rzw.com.cn/ggpd/sd/live.m3u8
日照导视,http://live.rzw.com.cn/fcpd/sd/live.m3u8
菏泽影视,http://live.hznet.tv:1935/live/live3/500K/tzwj_video.m3u8
聊城新闻综合,http://m3u8.channellive.lcbtv.com/cms/videos/nmip-media-dz/channellive/channel2/playlist.m3u8
聊城公共,http://m3u8.channellive.lcbtv.com/cms/videos/nmip-media-dz/channellive/channel3/playlist.m3u8
青岛电视城阳区,http://pili-live-rtmp.56.i2863.com/i2863-56/live_56_307317.m3u8
泰安新泰乡村,http://live.xtgdw.cn:1935/live/xtxc/playlist.m3u8
泰安新泰新闻综合,http://live.xtgdw.cn:1935/live/xtzh/playlist.m3u8
泰安新泰影视,http://live.xtgdw.cn:1935/live/xtys/playlist.m3u8
山东齐鲁,http://119.164.216.162:9901/tsfile/live/1003_1.m3u8
山东齐鲁,http://119.164.216.162:9901/tsfile/live/1000_1.m3u8
山东生活,http://119.164.216.162:9901/tsfile/live/1006_1.m3u8
山东体育,http://119.164.216.162:9901/tsfile/live/1002_1.m3u8
山东新闻,http://119.164.216.162:9901/tsfile/live/1005_1.m3u8
山东新闻,http://119.164.216.162:9901/tsfile/live/1004_1.m3u8
山东综艺,http://119.164.216.162:9901/tsfile/live/1001_1.m3u8
青岛城阳,http://pili-live-rtmp.56.i2863.com/i2863-56/live_56_307317.m3u8?shandd
日照新闻综合,http://live.rzw.com.cn/xwzh/sd/live.m3u8?shandd
日照公共,http://live.rzw.com.cn/kzpd/sd/live.m3u8?shandd
日照科教,http://live.rzw.com.cn/ggpd/sd/live.m3u8?shandd
烟台新闻综合,http://live.yantaitv.cn/live/3e81a8879da44c5dadf3bd9c10468e1c/9b776d420ee4438199b7657c8eb88f07-1.m3u8?shandd
烟台公共,http://live.yantaitv.cn/live/e50f104a4ffe4a41b2217cbda534146f/d86092e69df94668b33390278b061700-1.m3u8?shandd
烟台经济科技,http://live.yantaitv.cn/live/27f84144e95a4652ae9e5c211b2a6b55/405f3e33ba384aa0a16014d0becd1261-1.m3u8?shandd
烟台影,http://live.yantaitv.cn/live/e9f1d9045d474c31884d13fa4ffbbd16/a4a9b3704d854756907845107cc56129-1.m3u8
菏泽新闻综合,http://live.hznet.tv:1935/live/live1/500K/tzwj_video.m3u8?shandd
菏泽经济生活,http://live.hznet.tv:1935/live/live2/500K/tzwj_video.m3u8?shandd
枣庄新闻综合,http://stream.zztvzd.com/1/sd/live.m3u8?shandd
枣庄教育,http://stream.zztvzd.com/2/sd/live.m3u8?shandd
枣庄公共,http://stream.zztvzd.com/3/sd/live.m3u8?shandd
东营综合,http://stream.hhek.cn/xwzh/sd/live.m3u8?shandd
东营公共,http://stream.hhek.cn/ggpd/sd/live.m3u8?shandd
东营科教,http://stream.hhek.cn/dyjy/sd/live.m3u8?shandd
青州综合,http://sdqz.chinashadt.com:2036/live/stream:1.stream/playlist.m3u8?shandd
青州文化旅游,http://sdqz.chinashadt.com:2036/live/stream:3.stream/playlist.m3u8?shandd

山西,#genre#
山西经济,http://liveflash.sxrtv.com/live/sxfinance.m3u8?sub_m3u8=true&edge_slice=true
山西社会与法治,http://liveflash.sxrtv.com/live/sxedu.m3u8?sub_m3u8=true&edge_slice=true
山西文体生活,http://liveflash.sxrtv.com/live/sxpublic.m3u8?sub_m3u8=true&edge_slice=true
山西影视,http://liveflash.sxrtv.com/live/sxfilm.m3u8?sub_m3u8=true&edge_slice=true
山西黄河,http://liveflash.sxrtv.com/live/huanghe.m3u8?sub_m3u8=true&edge_slice=true
山西经济,http://angtv.cn/live/shanxi.php?id=sxjj
山西文体生活,http://angtv.cn/live/shanxi.php?id=sxwtsh
山西社会与法治,http://angtv.cn/live/shanxi.php?id=sxshfz
山西影视,http://angtv.cn/live/shanxi.php?id=sxys
山西黄河,http://angtv.cn/live/shanxi.php?id=sxhh
大宁综合,http://live.daningtv.com/channel1/sd/live.m3u8
高平综合,http://live.gprmt.cn/gpnews/hd/live.m3u8
吉县新闻综合,http://jxlive.jxrmtzx.com:8091/live/xwzh.m3u8
晋中公共频道,http://jzlive.jztvnews.com:90/live/jzgg.m3u8
晋中新闻频道,http://jzlive.jztvnews.com:90/live/jzzh.m3u8
黎城综合频道,http://111.53.96.67:8081/live/1/index.m3u8
临猗综合频道,http://pili-live-hls.lyzx.live.chinacici.cn/lyrmt/ceshi-ly.m3u8
潞城新闻综合,http://59.48.42.6:62204/lucheng.m3u8
宁武综合,https://fvsln5ps.live.sxmty.com/live/hls/7922d2cdc4734bb3921826418cfa992d/cd7756e2135a48758e73017d502d8ec1-1.m3u8
武乡新闻综合,http://uzoiczhh.live.sxmty.com/live/hls/0d41f1480c4042d49927858f01fde707/53130407737b417b9a6259b57246bae3.m3u8
运城公共频道,http://live.0359tv.com/lsdream/t667aTY/1000/live.m3u8
运城科技教育,http://live.0359tv.com/lsdream/p5eq48m/1000/live.m3u8
运城新闻综合,http://live.0359tv.com/lsdream/ss4Lj11/1000/live.m3u8
长子综合频道,http://zzlive.zzc-media.com:8092/live/xwzh.m3u8

四川,#genre#
巴中综合,http://ocj2.kksmg.com/ocj1/ocj1.m3u8
洪雅新闻综合,http://api2.52tb.xyz/info?id=607&token=20230218htjgzi
朝天新闻综合,https://m3u8.channel.dzsm.com/cms/videos/nmip-media/channellive/channel8/playlist.m3u8
大竹新闻综合,http://60.255.120.30:89/live1/live1.m3u8
大竹阳光政务,http://60.255.120.30:89/live2/live2.m3u8
德阳新闻综合,http://scdytv.cn:1935/live/m_xwpd_livevideo/playlist.m3u8
广安公共,http://live1.gatv.com.cn:85/live/GGPD_ggpdzm.m3u8
广元公共,https://m3u8.channel.dzsm.com/cms/videos/nmip-media/channellive/channel2/playlist.m3u8
黑水新闻综合,http://live.schstv.com:90/live/xwzh.m3u8
洪雅新闻综合,http://117.172.215.250:8083/videos/live/35/39/GQVbrgob5CGJM/GQVbrgob5CGJM.M3U8
会东综合,http://112.45.133.129:90/live/xwzh.m3u8
剑阁新闻综合,https://m3u8.channel.dzsm.com/cms/videos/nmip-media/channellive/channel10/playlist.m3u8
金川乡村,http://live.jinchuanrmt.com:90/live/jcxc.m3u8
金川新闻综合,http://live.jinchuanrmt.com:90/live/zhxw.m3u8
乐至综合,http://175.155.106.72:89/live1/live1.m3u8
雷波综合,http://lbzb.yd-data.com/live/0000.flv?auth_key=601589378470-0-0-67d1de5fa3aa9412566d7c9f807c91a0
利州综合,http://tvfile.lzgbdst.com/nmip-media/channellive/channel106876/playlist.m3u8
凉山新闻综合,http://file.yizu.tv/nmip-media/channellive/channel106606/playlist.m3u8
凉山,http://file.yizu.tv/nmip-media/channellive/channel107323/playlist.m3u8
攀枝花新闻综合,http://zb.pzhgd.com:9095/live/xwzh.m3u8
蓬安新闻综合,http://palive.patv123.com:8091/live/xwpd_800K.m3u8
青川新闻综合,https://m3u8.channel.dzsm.com/cms/videos/nmip-media/channellive/channel11/playlist.m3u8
松潘新闻综合,http://live.spccmc.com:90/live/spxwzh.m3u8
旺苍新闻综合,https://m3u8.channel.dzsm.com/cms/videos/nmip-media/channellive/channel9/playlist.m3u8
汶川新闻综合,http://live.iwcmt.cn:90/live/zhxw.m3u8
武胜综合,http://live2.gatv.com.cn:86/live/WS.m3u8
营山电视台,http://file.ysxtv.cn/cms/videos/nmip-media/channellive/channel4/playlist.m3u8
筠连综合,http://118.122.78.172:89/live1/live1.m3u8
中江新闻综合,https://livepgc.chinamcache.com/pgc/76664ca1f91638580f94fc7543c810cb.m3u8?auth_key=1657178327-0-0-976848e8ac0eacf503b1e7666d92f4f8
重庆新闻,https://sjlivecdn9.cbg.cn/202906282314/app_2/_definst_/ls_3.stream/chunklist.m3u8
北碚综合,http://222.178.181.121:12034/beibei01.m3u8
璧山综合,http://222.179.42.129:8181/hls1.m3u8
大足综合,http://218.201.85.71:3170/m3u8
荣昌综合,http://183.64.181.25:40023/rongchang01.m3u8
万盛新闻综合,http://stream0.tv41.ru/live.m3u8
万源新闻综合,http://live.wanyuannews.com/wytv/hd/live.m3u8
万载综合,http://live-echotv.cdnvideo.ru/echotv/echotv.sdp/playlist.m3u8
万载综合,http://ls.qingting.fm/live/273.m3u8
万州科教,http://123.146.162.24:8017/Cz7WPb8/800/live.m3u8
万州科教,http://wanzhoulive.cbg.cn:8017/Cz7WPb8/800/live.m3u8
万州三峡移民,http://123.146.162.24:8013/tslslive/PU2vzMI/hls/live_sd.m3u8
万州三峡移民,http://wanzhoulive.cbg.cn:8017/c2F0hmi/1000/live.m3u8
万州影视,http://123.146.162.24:8013/tslslive/vWlnEzU/hls/live_sd.m3u8
万州影视,http://wanzhoulive.cbg.cn:8017/d4ceB1a/1000/live.m3u8
万州影视文艺,http://123.146.162.24:8017/d4ceB1a/1000/live.m3u8
万州综合,http://123.146.162.24:8013/tslslive/noEX9SG/hls/live_sd.m3u8
万州综合,http://wanzhoulive.cbg.cn:8017/iTXwrGs/800/live.m3u8
武隆综合,https://qxlmlive9.cbg.cn/applive/wltvzh/playlist.m3u8
乐山新闻综合,http://channellive.leshantv.net/live/ch1.flv?zsicd
乐山公共,http://channellive.leshantv.net/live/ch2.flv?zsicd
广元综合,https://m3u8.channel.dzsm.com/cms/videos/nmip-media/channellive/channel1/playlist.m3u8?zsicd
广元公共,https://m3u8.channel.dzsm.com/cms/videos/nmip-media/channellive/channel2/playlist.m3u8?zsicd
凉山新闻综合,http://file.yizu.tv/nmip-media/channellive/channel106606/playlist.m3u8?zsicd
凉山语,http://file.yizu.tv/nmip-media/channellive/channel107323/playlist.m3u8?zsicd
德阳新闻综合,http://scdytv.cn:1935/live/m_xwpd_livevideo/playlist.m3u8?zsicd
德阳公共,http://scdytv.cn:1935/live/m_ggpd_livevideo/playlist.m3u8?zsicd
攀枝花新闻综合,http://zb.pzhgd.com:9095/live/xwzh.m3u8?zsicd
攀枝花公共,http://zb.pzhgd.com:9095/live/ggpd.m3u8?zsicd
甘孜综合,http://tv.drs.ganzitv.com:8100/channellive/gztv.flv?zsicd
龙泉驿新闻综合,http://live.newslqy.com/live/xwpd.m3u8?zsicd
筠连综合,http://118.122.78.172:89/live1/live1.m3u8?zsicd
叙州新闻综合,http://pili-live-hls.ybcxjd.com/jdh-live/2108111201035597.m3u8?zsicd
大竹新闻综合,http://60.255.120.30:89/live1/live1.m3u8?zsicd
大竹阳光政务,http://60.255.120.30:89/live2/live2.m3u8?zsicd
万源新闻综合,http://live.wanyuannews.com/wytv/hd/live.m3u8?zsicd
蓬安新闻综合,http://palive.patv123.com:8091/live/xwpd_800K.m3u8?zsicd
营山电视台,http://file.ysxtv.cn/cms/videos/nmip-media/channellive/channel4/playlist.m3u8?zsicd
金川新闻综合,http://live.jinchuanrmt.com:90/live/zhxw.m3u8?zsicd
金川乡村,http://live.jinchuanrmt.com:90/live/jcxc.m3u8?zsicd
松潘新闻综合,http://live.spccmc.com:90/live/spxwzh.m3u8?zsicd
汶川新闻综合,http://live.iwcmt.cn:90/live/zhxw.m3u8?zsicd
剑阁新闻综合,https://m3u8.channel.dzsm.com/cms/videos/nmip-media/channellive/channel10/playlist.m3u8?zsicd
利州综合,http://tvfile.lzgbdst.com/nmip-media/channellive/channel106876/playlist.m3u8?zsicd
利州综合,http://tv.drs.lzgbdst.com:8100/channellive/lztv2.flv?zsicd
旺苍新闻综合,https://m3u8.channel.dzsm.com/cms/videos/nmip-media/channellive/channel9/playlist.m3u8?zsicd
青神综合,http://lmt.scqstv.com/live1/live1.m3u8?zsicd
乐至综合,http://rmlive.lzxrmtzx.com/live1/live1.m3u8?zsicd
乐至综合,http://175.155.106.72:89/live1/live1.m3u8?zsicd
会东综合,http://112.45.133.129:90/live/xwzh.m3u8?zsicd
会东综合,http://live.schdxww.com:90/live/xwzh.m3u8?zsicd
汉源综合,http://live.hyxrmt.com:85/live/xwpd.m3u8?zsicd
泸县新闻综合,http://lxfile.lxxcb.cn/nmip-media/channellive/channel103799/playlist.m3u8?zsicd

安徽,#genre#
安徽经济生活,http://mmitv.top/test/ahtv.php?id=12
安徽公共,http://mmitv.top/test/ahtv.php?id=16
安徽农业科教,http://mmitv.top/test/ahtv.php?id=14
安徽综艺体育,http://mmitv.top/test/ahtv.php?id=17
安徽影视,http://mmitv.top/test/ahtv.php?id=13
安徽农业科教,http://lu1.cc/c/tv/ahtv/ahtv1.php?id=ahnykj
安徽经济生活,http://112.30.194.221:20080/live/eac499adad7b49ff9cfa79ba84693959.flv
安徽综艺体育,http://112.30.194.221:20080/live/c41f112b83f644ddb082669501c8ecd3.flv
安徽影视,http://112.30.194.221:20080/live/d18ff95cb1fb4bbcb56215e189fc12be.flv
亳州农村,http://220.180.110.101:8083/videos/live/39/13/o4ncrHkSp7q09/o4ncrHkSp7q09.M3U8
固镇新闻,http://www.guzhenm.com:7001/hls/hd-live.m3u8
固镇影视,http://www.guzhenm.com:7004/hls/hd-live.m3u8
淮河能源综合,http://play.hhnynews.com/hhny/zhpd.m3u8?auth_key=1659380497-0-0-b07e3e3cd99f9355b6aa1e79fbd305f2
淮南一套,http://stream.0554news.com/hnds1/sd/live.m3u8
淮南二套,http://stream.0554news.com/hnds2/sd/live.m3u8
灵璧综合,http://live.cms.anhuinews.com/video/s10003-lbtv/index.m3u8
六安公共,http://pili-live-rtmp.luan2.hfmt.net/luan2/ggpd.m3u8
六安新闻综合,http://pili-live-rtmp.luan2.hfmt.net/luan2/jjpd.m3u8
宿州公共,http://live.ahsz.tv/video/s10001-ggpd/index.m3u8?zanhd
六安新闻综合,http://pili-live-rtmp.luan2.hfmt.net/luan2/jjpd.m3u8?zanhd
六安公共,http://pili-live-rtmp.luan2.hfmt.net/luan2/ggpd.m3u8?zanhd
淮南新闻综合,http://stream.0554news.com/hnds1/sd/live.m3u8?zanhd
淮南公共,http://stream.0554news.com/hnds2/sd/live.m3u8?zanhd
固镇新闻,http://www.guzhenm.com:7001/hls/hd-live.m3u8?zanhd
灵璧综合,http://live.cms.anhuinews.com/video/s10003-lbtv/index.m3u8?zanhd
霍山综合,http://ahhsdb.chinashadt.com:1936/live/stream:ahws.stream/playlist.m3u8?zanhd
河南,#genre#
河南民生,http://123.6.9.146/live/jz-henanminsheng/live.m3u8
信阳综合,http://mmitv.top/test/tianma.php?id=xyzh
信阳公共,http://mmitv.top/test/tianma.php?id=xygg
信阳浉河,http://mmitv.top/test/tianma.php?id=xysh
信阳平桥,http://mmitv.top/test/tianma.php?id=xypq
周口扶沟,http://live.dxhmt.cn:9081/tv/11621-1.m3u8
郸城新闻综合,http://live.dxhmt.cn:9081/tv/11625-1.m3u8
登封综合,http://tvpull.dxhmt.cn:9081/tv/10185-1.m3u8
范县新闻综合,http://live.dxhmt.cn:9080/13603832636/13abd3089d9c47058fe34c49a6182981.m3u8
扶沟综合,http://tvpull.dxhmt.cn:9081/tv/11621-1.m3u8
固始综合,http://tvpull.dxhmt.cn:9081/tv/11525-1.m3u8
光山综合,http://tvpull.dxhmt.cn:9081/tv/11522-1.m3u8
鹤岗新闻综合,http://live.hznet.tv:1935/live/live2/500K/tzwj_video.m3u8
淮滨综合,http://tvpull.dxhmt.cn:9081/tv/11527-1.m3u8
潢川综合,http://tvpull.dxhmt.cn:9081/tv/11526-1.m3u8
济源电视一套,http://live.dxhmt.cn:9081/tv/19001-1.m3u8
焦作公共,http://zhpull.dxhmt.cn/jiaozuo/29b65b69130c4ef1a3283cc7b913da05/playlist.m3u8
焦作教育,http://zhpull.dxhmt.cn/jiaozuo/9c10435ad24c409baee219ec289e17d0/playlist.m3u8
焦作综合,http://zhpull.dxhmt.cn/jiaozuo/b75a92c9503e47cf9e89f7ff247b65f2/playlist.m3u8
睛彩焦作,http://zhpull.dxhmt.cn/jiaozuo/c5eb91b47f0e42318f34fc0247c8acaa/playlist.m3u8
开封公共,http://live.dxhmt.cn:9081/tv/10200-3.m3u8
兰考新闻,http://tvpull.dxhmt.cn:9081/tv/10225-1.m3u8
临颍综合,http://tvpull.dxhmt.cn:9081/tv/11122-1.m3u8
栾川新闻,http://wshls.live.migucloud.com/live/LVVUJGFD_C0/playlist.m3u8
洛宁综合,http://wshls.live.migucloud.com/live/WJ1E4VDQ_C0/playlist.m3u8
泌阳新闻综合,http://tvpull.dxhmt.cn:9081/tv/11726-1.m3u8
渑池新闻综合,http://tvpull.dxhmt.cn:9081/tv/11221-1.m3u8
内乡综合,http://tvpull.dxhmt.cn:9081/tv/11325-1.m3u8
汝南综合,http://tvpull.dxhmt.cn:9081/tv/11727-1.m3u8
嵩县综合新闻,http://wshls.live.migucloud.com/live/MZCYG799_C0/playlist.m3u8
唐河一套,http://tvpull.dxhmt.cn:9081/tv/11328-1.m3u8
桐柏新闻综合,http://tvpull.dxhmt.cn:9081/tv/11330-1.m3u8
息县综合,http://120.194.173.75:6060/0.ts
淅川综合,http://tvpull.dxhmt.cn:9081/tv/11326-1.m3u8
项城新闻,http://tvpull.dxhmt.cn:9081/tv/11681-1.m3u8
新蔡综合,http://tvpull.dxhmt.cn:9081/tv/11729-1.m3u8
新县综合,http://tvpull.dxhmt.cn:9081/tv/11523-1.m3u8
新乡县电视台,http://tvpull.dxhmt.cn:9081/tv/10721-1.m3u8
鄢陵综合,http://tvpull.dxhmt.cn:9081/tv/11024-1.m3u8
偃师新闻,http://wshls.live.migucloud.com/live/K7AFC7J6_C0/playlist.m3u8
叶县一套,http://tvpull.dxhmt.cn:9081/tv/10422-1.m3u8
义马新闻综合,http://tvpull.dxhmt.cn:9081/tv/11281-1.m3u8
禹州公共,http://tvpull.dxhmt.cn:9081/tv/11081-2.m3u8
禹州综合,http://tvpull.dxhmt.cn:9081/tv/11081-1.m3u8
叶县电视,http://live.dxhmt.cn:9081/tv/10422-1.m3u8
义马电视,http://live.dxhmt.cn:9081/tv/11281-1.m3u8
禹州综合,http://live.dxhmt.cn:9081/tv/11081-1.m3u8
兰考新闻,http://live.dxhmt.cn:9081/tv/10225-1.m3u8
新乡,http://live.dxhmt.cn:9081/tv/10721-1.m3u8
河南都市,http://123.6.9.146/live/jz-henandushi/live.m3u8?zhend
河南民生,http://123.6.9.146/live/jz-henanminsheng/live.m3u8?zhend
焦作综合频道,http://zhpull.dxhmt.cn/jiaozuo/b75a92c9503e47cf9e89f7ff247b65f2/playlist.m3u8?zhend
焦作公共频道,http://zhpull.dxhmt.cn/jiaozuo/29b65b69130c4ef1a3283cc7b913da05/playlist.m3u8?zhend
焦作教育频道,http://zhpull.dxhmt.cn/jiaozuo/9c10435ad24c409baee219ec289e17d0/playlist.m3u8?zhend
睛彩焦作频道,http://zhpull.dxhmt.cn/jiaozuo/c5eb91b47f0e42318f34fc0247c8acaa/playlist.m3u8?zhend
鹤壁综合频道,http://pili-live-hls.hebitv.com/hebi/hebi.m3u8?zhend
嵩县综合新闻,http://wshls.live.migucloud.com/live/MZCYG799_C0/playlist.m3u8?zhend
偃师新闻频道,http://wshls.live.migucloud.com/live/K7AFC7J6_C0/playlist.m3u8?zhend
郑州教育,https://livezzutv.chinamcache.com/live/zb01.m3u8?auth_key=1677911572-0-0-f4af513ba8c09e7801f4700f1573be2c

福建,#genre#
福州新闻,http://live.zohi.tv/video/s10001-fztv-1/index.m3u8
福州生活,http://live.zohi.tv/video/s10001-fztv-3/index.m3u8
福州少儿,http://live.zohi.tv/video/s10001-fztv-4/index.m3u8
厦门第一,http://cctvtxyh5ca.liveplay.myqcloud.com/cstv/xiamen1_2/index.m3u8
将乐综合,http://218.106.152.196/lsdream/9nbYeUc/1000/live.m3u8
将乐二套,http://218.106.152.196/lsdream/1MKmR5B/2000/live.m3u8
永安综合,http://218.106.152.196/lsdream/x6FnPrm/2000/live.m3u8
霞浦公共,http://218.106.152.196/lsdream/f2Hfjtd/5000/live.m3u8
武夷山综合,http://fjwysdb.chinashadt.com:2036/live/1.stream/playlist.m3u8
武夷山文旅茶,http://fjwysdb.chinashadt.com:2036/live/3.stream/playlist.m3u8
云霄综合,http://live.zzyxxw.com:85/live/xwzh.m3u8
漳州新闻,http://31182.hlsplay.aodianyun.com/lms_31182/tv_channel_175.m3u8
三明综合,http://stream.smntv.cn/smtv1/sd/live.m3u8
三明公共,http://stream.smntv.cn/smtv2/sd/live.m3u8
三明新闻综合,http://fjnhdb.chinashadt.com:2036/live/stream:nh2.stream/playlist.m3u8?zfud
三明新闻综合,http://stream.smntv.cn/smtv1/sd/live.m3u8?zfud
三明公共频道,http://stream.smntv.cn/smtv2/sd/live.m3u8?zfud
新罗电视一套,http://stream.lyxltv.com/xltv/sd/live.m3u8?zfud
将乐综合,http://218.106.152.196/lsdream/9nbYeUc/1000/live.m3u8?fujian
建宁综合频道,https://p2.weizan.cn/2144741973/075444991326676404/live.m3u8?zfud
宁化电视一套,http://fjnhdb.chinashadt.com:2036/live/stream:nh1.stream/playlist.m3u8?fujian
永安综合频道,http://218.106.152.196/lsdream/x6FnPrm/2000/live.m3u8?fujian
霞浦综合频道,http://218.106.152.196/lsdream/G7wCyZW/4000/live.m3u8?zfud
德化新闻综合,http://218.106.152.196/lsdream/2LacKP6/1024/live.m3u8?zfud
石狮综合,http://218.106.152.196/lsdream/MO13IYx/2000/live.m3u8?zfud
云霄综合,http://live.zzyxxw.com:85/live/xwzh.m3u8?fujian
漳浦综合,http://220.161.87.62:8090/hls/0/index.m3u8?zfud

河北,#genre#
河北经济,https://event.pull.hebtv.com/jishi/jingjishenghuo.m3u8
河北都市,https://event.pull.hebtv.com/jishi/dushipindao.m3u8
河北影视,https://event.pull.hebtv.com/jishi/yingshijupindao.m3u8
河北少儿,https://event.pull.hebtv.com/jishi/shaoerkejiao.m3u8
河北公共,https://event.pull.hebtv.com/jishi/gonggongpindao.m3u8
河北农民,https://event.pull.hebtv.com/jishi/nongminpindao.m3u8
河北经济,http://live.hyxrmt.com:85/live/xwpd.m3u8
石家庄新闻,http://pluslive1.sjzntv.cn/xmzh/playlist.m3u8
石家庄娱乐,http://pluslive1.sjzntv.cn/yule/playlist.m3u8
石家庄生活,http://pluslive1.sjzntv.cn/shenghuo/playlist.m3u8
石家庄都市,http://pluslive1.sjzntv.cn/dushi/playlist.m3u8
保定新闻,http://jwcdnqx.hebyun.com.cn/live/jybd/1500k/tzwj_video.m3u8
保定公共,http://jwcdnqx.hebyun.com.cn/live/bdxw1/1500k/tzwj_video.m3u8
保定生活,http://jwcdnqx.hebyun.com.cn/live/bddst/1500k/tzwj_video.m3u8
承德公共生活,https://jwliveqxzb.hebyun.com.cn/cdsggshtv/cdsggshtv.m3u8
承德新闻综合,https://jwliveqxzb.hebyun.com.cn/cdsxwzhtv/cdsxwzhtv.m3u8
大厂一套,http://60.10.185.184:1935/live/dc1.stream/playlist.m3u8
定州生活频道,https://jwliveqxzb.hebyun.com.cn/shpd/shpd.m3u8
定州新闻综合,https://jwliveqxzb.hebyun.com.cn/xxzhpd/xxzhpd.m3u8
丰宁综合频道,https://jwliveqxzb.hebyun.com.cn/fengningzonghe/fengningzonghe.m3u8
邯郸新闻,https://jwliveqxzb.hebyun.com.cn/hdxwzh/hdxwzh.m3u8
邯郸公共,https://jwliveqxzb.hebyun.com.cn/hdgg/hdgg.m3u8
邯郸科教,https://jwliveqxzb.hebyun.com.cn/hdkj/hdkj.m3u8
衡山,http://live.hznet.tv:1935/live/live1/500K/tzwj_video.m3u8
衡水新闻综合,http://111.225.205.64:8081/964D4p2/800/live.m3u8
景县电视一套,http://hbjx.chinashadt.com:1935/live/stream:jx1.stream/playlist.m3u8
涞水新闻频道,https://jwliveqxzb.hebyun.com.cn/lsdst/lsdst.m3u8
隆化影视频道,http://hblh.chinashadt.com:2036/live/stream:lh2.stream/playlist.m3u8
隆化综合频道,http://hblh.chinashadt.com:2036/live/stream:lh1.stream/playlist.m3u8
鹿泉一套,https://jwliveqxzb.hebyun.com.cn/luquanyi/luquanyi.m3u8
平泉影视频道,https://jwliveqxzb.hebyun.com.cn/pqys/pqys.m3u8
平泉综合频道,https://jwliveqxzb.hebyun.com.cn/pqzh/pqzh.m3u8
平乡综合频道,http://hbpx.chinashadt.com:2036/live/px1.stream/playlist.m3u8
清河经济综艺,https://jwcdnqx.hebyun.com.cn/live/qinghe1/1500k/tzwj_video.m3u8
清河新闻综合,https://jwcdnqx.hebyun.com.cn/live/qinghe/1500k/tzwj_video.m3u8
邱县电视二套,http://live.hd.hdbs.cn/video/s10013-qxds2/index.m3u8
邱县综合频道,http://live.hd.hdbs.cn/video/s10013-qxds1/index.m3u8
任丘文娱,https://jwcdnqx.hebyun.com.cn/live/rqtv2/1500k/tzwj_video.m3u8
任丘综合,https://jwcdnqx.hebyun.com.cn/live/rqtv1/1500k/tzwj_video.m3u8
望都综合频道,https://jwliveqxzb.hebyun.com.cn/wddst/wddst.m3u8
兴隆影视频道,https://jwcdnqx.hebyun.com.cn/live/xlys/1500k/tzwj_video.m3u8
兴隆综合频道,https://jwcdnqx.hebyun.com.cn/live/xlzh/1500k/tzwj_video.m3u8
河北影视剧,https://event.pull.hebtv.com/jishi/yingshijupindao.m3u8
河北经济生活,https://event.pull.hebtv.com/jishi/jingjishenghuo.m3u8
河北少儿科教,https://event.pull.hebtv.com/jishi/shaoerkejiao.m3u8
河北三佳购物,https://event.pull.hebtv.com/jishi/sanjiagouwu.m3u8
石家庄新闻综合,http://pluslive1.sjzntv.cn/xmzh/playlist.m3u8?zhebd
石家庄娱乐,http://pluslive1.sjzntv.cn/yule/playlist.m3u8?zhebd
石家庄生活,http://pluslive1.sjzntv.cn/shenghuo/playlist.m3u8?zhebd
石家庄都市,http://pluslive1.sjzntv.cn/dushi/playlist.m3u8?zhebd
邯郸公共频道,https://jwcdnqx.hebyun.com.cn/live/hdgg/1500k/tzwj_video.m3u8?zhebd
邯郸公共频道,https://jwliveqxzb.hebyun.com.cn/hdgg/hdgg.m3u8
邯郸公共频道,http://live.hd.hdbs.cn/video/s10001-2021hdgg/index.m3u8?zhebd
邯郸科技教育,https://jwcdnqx.hebyun.com.cn/live/hdkj/1500k/tzwj_video.m3u8?zhebd
邯郸科技教育,https://jwliveqxzb.hebyun.com.cn/hdkj/hdkj.m3u8?zhebd
邯郸科技教育,http://live.hd.hdbs.cn/video/s10001-2021hdkjjy/index.m3u8?zhebd
衡水公共频道,rtmp://hls.hsrtv.cn/hls/hstv2
鹿泉一套,https://jwliveqxzb.hebyun.com.cn/luquanyi/luquanyi.m3u8?zhebd
鹿泉一套,https://jwcdnqx.hebyun.com.cn/live/luquanyi/1500k/tzwj_video.m3u8?zhebd
滦平新闻频道,rtmp://live.lpxrmtzx.com/live/wh?zhebd
河北农民,https://jwplay.hebyun.com.cn/live/hbnmtv/1500k/tzwj_video.m3u8?zhebd
滨海新闻,http://traffic.jbh.tjbh.com/live/bhtv1/playlist.m3u8
滨海综艺,http://traffic.jbh.tjbh.com/live/bhtv2/playlist.m3u8
滨海影视,http://traffic.jbh.tjbh.com/live/bhtv3/playlist.m3u8
云南,#genre#
云南都市,http://tvlive.ynradio.com/live/yunnandushi/chunks.m3u8
云南康旅,http://tvlive.ynradio.com/live/yunnangonggong/chunks.m3u8
云南娱乐,http://tvlive.ynradio.com/live/yunnanyule/chunks.m3u8
云南少儿,http://tvlive.ynradio.com/live/yunnanshaoer/chunks.m3u8
云南国际,http://tvlive.ynradio.com/live/yunnanguoji/playlist.m3u8
QJTV巧家,http://livebroadcast.ccwb.cn/live/w1593303918254963.m3u8
保山三套,http://liveynbsdst.chinamcache.com/live/zb03.m3u8?auth_key=1645240698-0-0-551c30f245abc8aa44554820452c332c
峨山电视,http://live.ynurl.com/video/s10034-ESTV/index.m3u8
福贡综合,http://livebroadcast.ccwb.cn/live/w1612505860303999.m3u8
广南电视台,http://live.ynurl.com/video/s10031-gnxgbds/index.m3u8
江川综合,http://live.ynurl.com/video/s10037-JCTV/index.m3u8
金平综合,http://live.ynurl.com/video/s10041-JPTV/index.m3u8
陇川综合,http://live.ynurl.com/video/s10027-LCDST/index.m3u8
麻栗坡,http://tvdrs.wsrtv.com.cn:8100/channellive/mlptv.flv
麻栗坡台,http://m3u8.channel.wsrtv.com.cn/cms/videos/nmip-media/channellive/channel18/playlist.m3u8
马关电视台,http://live.ynurl.com/video/s10046-001/index.m3u8
芒市综合,http://live.ynurl.com/video/s10001-mstv1/index.m3u8
蒙自综合,http://live.ynurl.com/video/s10019-mzdst/index.m3u8
丘北新闻综合,http://m3u8.channel.wsrtv.com.cn/cms/videos/nmip-media/channellive/channel14/playlist.m3u8
瑞丽频道,http://live.ynurl.com/video/s10021-rltv/index.m3u8
施甸综合,http://live.ynurl.com/video/s10048-SDTV/index.m3u8
文山市电视台,http://m3u8.channel.wsrtv.com.cn/cms/videos/nmip-media/channellive/channel17/playlist.m3u8
文山州公共,http://m3u8.channel.wsrtv.com.cn/cms/videos/nmip-media/channellive/channel8/playlist.m3u8
文山综合,http://m3u8.channel.wsrtv.com.cn/cms/videos/nmip-media/channellive/channel7/playlist.m3u8
文山综合,http://tvdrs.wsrtv.com.cn:8100/channellive/ch1.flv
西双版纳1,http://file.xsbnrtv.cn/vms/videos/nmip-media/channellive/channel1/playlist.m3u8
西双版纳2,http://file.xsbnrtv.cn/vms/videos/nmip-media/channellive/channel3/playlist.m3u8
砚山电视台,http://live.ynurl.com/video/s10020-ystv/index.m3u8
砚山频道,http://m3u8.channel.wsrtv.com.cn/cms/videos/nmip-media/channellive/channel16/playlist.m3u8
镇雄电视台,http://livebroadcast.ccwb.cn/live/w1606722098119972.m3u8
贵州,#genre#
金海湖电视台,http://pili-live-hls.jhh.ddcpc.cn/ddcpc-jhh/tv1050-1563865985.m3u8
松桃新闻,http://live.strmtzx.cn/stxw/sd/live.m3u8
松桃综艺,http://live.strmtzx.cn/stzy/sd/live.m3u8
正安综合,http://pili-live-hls.221.i2863.com/i2863-221/live_221_315303.m3u8
贵州公共,http://api2.52tb.xyz/info?id=701&token=20230331czbpek
贵州影视,http://api2.52tb.xyz/info?id=702&token=20230331czbpek
贵州生活,http://api2.52tb.xyz/info?id=703&token=20230331czbpek
贵州法治,http://api2.52tb.xyz/info?id=704&token=20230331czbpek
贵州科教,http://api2.52tb.xyz/info?id=705&token=20230331czbpek
贵州经济,http://api2.52tb.xyz/info?id=706&token=20230331czbpek
贵州移动,http://api2.52tb.xyz/info?id=707&token=20230331czbpek
南宁综合,http://api2.52tb.xyz/info?id=721&token=20230331czbpek
南宁都市,http://api2.52tb.xyz/info?id=722&token=20230331czbpek
南宁影视,http://api2.52tb.xyz/info?id=723&token=20230331czbpek
南宁公共,http://api2.52tb.xyz/info?id=724&token=20230331czbpek

甘肃,#genre#
甘肃都市,http://39.134.32.102:6610/270000001111/1110000324/index.m3u8?IASHttpSessionId=OTT
甘肃经济,http://39.134.32.102:6610/270000001111/1110000326/index.m3u8?IASHttpSessionId=OTT
甘肃文化影视,http://39.134.32.102:6610/270000001111/1110000323/index.m3u8?IASHttpSessionId=OTT
甘肃少儿,http://39.134.32.102:6610/270000001111/1110000327/index.m3u8?IASHttpSessionId=OTT
甘肃公共应急,http://39.134.32.102:6610/270000001111/1110000325/index.m3u8?IASHttpSessionId=OTT
兰州新闻综合,http://39.134.32.102:6610/270000001111/1110000328/index.m3u8?IASHttpSessionId=OTT
兰州文旅频道,http://39.134.32.102:6610/270000001111/1110000330/index.m3u8?IASHttpSessionId=OTT
白银公共,http://live.bygd.cn/bygg/sd/live.m3u8
白银综合,http://live.bygd.cn/byzh/sd/live.m3u8
古浪综合,https://play.kankanlive.com/live/1619400940821967.m3u8
金川综合,https://play.kankanlive.com/live/1625041962958919.m3u8
礼县综合,https://play.kankanlive.com/live/1621416463200961.m3u8
平川综合,https://play.kankanlive.com/live/1621842376245934.m3u8
庆阳综合,http://stream.gsqytv.com.cn/xwzh/sd/live.m3u8
通渭综合,https://play.kankanlive.com/live/1629944062210970.m3u8
西和综合,https://play.kankanlive.com/live/1626051451895935.m3u8
舟曲新闻综合,https://play.kankanlive.com/live/1631185650131909.m3u8
青海,#genre#
青海卫视,http://stream.qhbtv.com/qhws/playlist.m3u8
青海综合,http://lmt.scqstv.com/live1/live1.m3u8
青海经视,http://stream.qhbtv.com/qhsh/sd/live.m3u8
青海都市,http://stream.qhbtv.com/qhds/sd/live.m3u8
囊谦综合,http://pili-live-hls-qhnqapp2020.sobeylive.com/qhnqapp2020/qhnqtv01.m3u8
西宁新闻,https://liveout.xntv.tv/a65jur/96iln2.m3u8
西宁生活,https://liveout.xntv.tv/a65jur/90p2i1.m3u8
门源综合,http://livecdn.dmqhyadmin.com/hls/xjmenyuan.m3u8

宁夏,#genre#
银川公共,http://play-a2.quklive.com/live/1667883943560053.m3u8
银川生活,http://play-a2.quklive.com/live/1667883987087179.m3u8
银川文体,http://play-a2.quklive.com/live/1667884025738071.m3u8

吉林,#genre#
吉林新闻综合,http://stream1.jlntv.cn/xcpd/sd/live.m3u8?_upt=ed8b01841531576074
吉林乡村,http://stream1.jlntv.cn/shpd/sd/live.m3u8?_upt=212b47d81531576020
吉林乡村,http://stream1.jlntv.cn/xcpd/sd/live.m3u8
吉林乡村,http://stream1.jlntv.cn/shpd/sd/live.m3u8
吉林山村,http://stream1.jlntv.cn/dspd/playlist.m3u8?_upt=a9a201ef1578416337
吉林七台,http://stream1.jlntv.cn/fzpd/sd/live.m3u8
吉林公共新闻,http://stream1.jlntv.cn/ggpd/playlist.m3u8
吉林公共新闻,http://stream1.jlntv.cn/dspd/sd/live.m3u8?_upt=4f4899d21531575987
吉林公共新闻,http://stream1.jlntv.cn/dspd/sd/live.m3u8
吉林公共,http://stream1.jlntv.cn/ggpd/sd/live.m3u8
辉南新闻综合,http://stream5.jlntv.cn/hn/sd/live.m3u8
桦甸综合,http://stream10.jlntv.cn/huadian/sd/live.m3u8
东辽综合,http://stream5.jlntv.cn/dl/sd/live.m3u8
东丰综合,http://stream5.jlntv.cn/df/sd/live.m3u8
东北戏曲,http://stream1.jlntv.cn/dbxq/sd/live.m3u8
白山公共,http://stream8.jlntv.cn/baishan2/playlist.m3u8
长白山电视台,http://stream8.jlntv.cn/cbstv/sd/live.m3u8
永吉综合频道,http://stream10.jlntv.cn/yongji/sd/live.m3u8
通化县综合,http://stream5.jlntv.cn/thx/sd/live.m3u8
龙井综合,http://stream8.jlntv.cn/ljtv/sd/live.m3u8
江源综合,http://stream10.jlntv.cn/jiangyuantv/sd/live.m3u8

辽宁,#genre#
辽宁公共,http://42.176.185.28:9901/tsfile/live/1010_1.m3u8
辽宁都市,http://42.176.185.28:9901/tsfile/live/1005_1.m3u8
辽宁经济,http://42.176.185.28:9901/tsfile/live/1009_1.m3u8
辽宁生活,http://42.176.185.28:9901/tsfile/live/1006_1.m3u8
辽宁影视剧,http://42.176.185.28:9901/tsfile/live/1012_1.m3u8
辽宁教育,http://42.176.185.28:9901/tsfile/live/1008_1.m3u8
辽宁体育,http://42.176.185.28:9901/tsfile/live/1007_1.m3u8
辽宁北方,http://42.176.185.28:9901/tsfile/live/1011_1.m3u8
辽宁都市,http://218.25.44.2:8899/hls/47/index.m3u8
辽宁经济,http://218.25.44.2:8899/hls/39/index.m3u8
辽宁公共,http://218.25.44.2:8899/hls/40/index.m3u8
辽宁影视,http://218.25.44.2:8899/hls/48/index.m3u8
辽宁教育,http://218.25.44.2:8899/hls/51/index.m3u8
辽宁生活,http://218.25.44.2:8899/hls/52/index.m3u8
辽宁体育,http://218.25.44.2:8899/hls/53/index.m3u8
辽宁北方,http://218.25.44.2:8899/hls/54/index.m3u8
沈阳新闻综合,http://218.25.44.2:8899/hls/20/index.m3u8
丹东新闻综合,http://mmitv.top/test/tianma.php?id=ddzh

新疆,#genre#
乌鲁木齐汉语综合,http://mmitv.top/test/tianma.php?id=utvhyzh
乌鲁木齐维语综合,http://mmitv.top/test/tianma.php?id=utvwyzh
霍尔果斯综合,http://117.190.118.175:9090/stream1/m2e2000.m3u8
吉木萨尔综合,http://218.31.201.189:9000/api/material/local/mnt/shiping1/prog_index.m3u8
可克达拉综合,http://test5.btzx.com.cn:80/live/kkdl.stream/playlist.m3u8
奎屯哈萨克语,http://218.84.12.186:8002/hls/main/playlist.m3u8
石河子教育,http://124.88.144.73:1935/live/jiaoyu/playlist.m3u8
石河子经济生活,http://124.88.144.73:1935/live/dywt/playlist.m3u8
石河子新闻综合,http://124.88.144.73:1935/live/xwzh/playlist.m3u8
石河子影视文体,http://124.88.144.73:1935/live/jjsh/playlist.m3u8
伊犁哈萨克,http://110.153.180.106:55555/out_3/index.m3u8
伊犁汉语综合,http://110.153.180.106:55555/out_1/index.m3u8
伊犁经济法制,http://110.153.180.106:55555/out_4/index.m3u8
伊犁维吾尔,http://110.153.180.106:55555/out_2/index.m3u8

内蒙古,#genre#
巴彦淖尔新闻综合,http://mmitv.top/test/tianma.php?id=bynrzh
巴彦淖尔经济生活,http://mmitv.top/test/tianma.php?id=bynrjj
巴彦淖尔影视娱乐,http://mmitv.top/test/tianma.php?id=bynrys
达茂综合频道,http://pili-live-hls.nmgapp12019.sobeylive.com/nmgapp12019/live162426298237692.m3u8
固阳综合频道,http://pili-live-hls.nmgapp12019.sobeylive.com/nmgapp12019/live160861109294211.m3u8
突泉综合频道,http://pili-live-hls.cyyapp2019.sobeylive.com/cyyapp2019/live162580132995542.m3u8
库伦旗电视台,http://pili-live-hls.nmgapp12019.sobeylive.com/nmgapp12019/live161942247484390.m3u8
奈曼旗电视台,http://pili-live-hls.nmgapp12019.sobeylive.com/nmgapp12019/live161888593025926.m3u8
准格尔旗电视台,http://pili-live-hls.nmgapp12019.sobeylive.com/nmgapp12019/live161802828375549.m3u8
鄂托克旗电视台,http://110.19.181.138:10080/hls/F509Rh7GR/F509Rh7GR_live.m3u8
察右前旗综合,http://pili-live-hls.nmgapp12019.sobeylive.com/nmgapp12019/live160073959279435.m3u8
鄂温克电视台,http://pili-live-hls.nmgapp12019.sobeylive.com/nmgapp12019/live162700604855057.m3u8
突泉综合,http://pili-live-hls.cyyapp2019.sobeylive.com/cyyapp2019/live160447331668536.m3u8
可克达拉综合,http://test5.btzx.com.cn/live/kkdl.stream/playlist.m3u8
黑龙江,#genre#
黑龙江新闻法治,http://ottrrs.hl.chinamobile.com/PLTV/88888888/224/3221226330/index.m3u8
黑龙江都市,http://ottrrs.hl.chinamobile.com/PLTV/88888888/224/3221226301/index.m3u8
黑龙江文体,http://ottrrs.hl.chinamobile.com/PLTV/88888888/224/3221226239/index.m3u8
黑龙江农业,http://ottrrs.hl.chinamobile.com/PLTV/88888888/224/3221226242/index.m3u8
黑龙江影视,http://ottrrs.hl.chinamobile.com/PLTV/88888888/224/3221226298/index.m3u8
Link,#genre#
now新闻,http://sc2022.stream-link.org/tv2306.php?id=c02
now华剧,http://sc2022.stream-link.org/tv2306.php?id=c01
TVB星河,http://sc2022.stream-link.org/tv2306.php?id=c02
千禧台 ,http://sc2022.stream-link.org/tv2306.php?id=c03
now新闻,http://sc2022.stream-link.org/tv2306.php?id=c04
翡翠台,http://sc2022.stream-link.org/tv2306.php?id=h01
翡翠台,http://sc2022.stream-link.org/tv2306.php?id=h02
J2台,http://sc2022.stream-link.org/tv2306.php?id=h03
無綫新聞台,http://sc2022.stream-link.org/tv2306.php?id=h04
無綫新聞台,http://sc2022.stream-link.org/tv2306.php?id=h06
無綫財經·體育·資訊台,http://sc2022.stream-link.org/tv2306.php?id=h05
無綫財經·體育·資訊台,http://sc2022.stream-link.org/tv2306.php?id=h07
港台电视31,http://sc2022.stream-link.org/tv2306.php?id=h08
港台电视32,http://sc2022.stream-link.org/tv2306.php?id=h09
香港國際財經台,http://sc2022.stream-link.org/tv2306.php?id=h12
香港開電視,http://sc2022.stream-link.org/tv2306.php?id=h13
香港開電視資訊台,http://sc2022.stream-link.org/tv2306.php?id=h14
鳳凰衛視資訊台,http://sc2022.stream-link.org/tv2306.php?id=h15
鳳凰衛視中文台,http://sc2022.stream-link.org/tv2306.php?id=h16
鳳凰衛視香港台,http://sc2022.stream-link.org/tv2306.php?id=h17
澳門蓮花衛視,http://sc2022.stream-link.org/tv2306.php?id=h18
東森新聞,http://sc2022.stream-link.org/tv2306.php?id=t01
東森財經新聞,http://sc2022.stream-link.org/tv2306.php?id=t02
中天新聞,http://sc2022.stream-link.org/tv2306.php?id=t03
華視新聞,http://sc2022.stream-link.org/tv2306.php?id=t04
中視新聞,http://sc2022.stream-link.org/tv2306.php?id=t05
民視新聞,http://sc2022.stream-link.org/tv2306.php?id=t06
寰宇國際新聞,http://sc2022.stream-link.org/tv2306.php?id=t07
寰宇台灣新聞,http://sc2022.stream-link.org/tv2306.php?id=t08
三立財經新聞,http://sc2022.stream-link.org/tv2306.php?id=t09
三立新聞,http://sc2022.stream-link.org/tv2306.php?id=t10
三立新聞+,http://sc2022.stream-link.org/tv2306.php?id=t11
台視新聞,http://sc2022.stream-link.org/tv2306.php?id=t12
TVBS新聞,http://sc2022.stream-link.org/tv2306.php?id=t13
TVBSHD,http://sc2022.stream-link.org/tv2306.php?id=t14
中天亞洲台,http://sc2022.stream-link.org/tv2306.php?id=t15
TVBS亞洲台,http://sc2022.stream-link.org/tv2306.php?id=t16
民視HD,http://sc2022.stream-link.org/tv2306.php?id=t17
民視第一台,http://sc2022.stream-link.org/tv2306.php?id=t18
民視台灣台,http://sc2022.stream-link.org/tv2306.php?id=t19
民視綜藝台,http://sc2022.stream-link.org/tv2306.php?id=t20
民視影劇台,http://sc2022.stream-link.org/tv2306.php?id=t21
民視旅遊台,http://sc2022.stream-link.org/tv2306.php?id=t22
三立台灣,http://sc2022.stream-link.org/tv2306.php?id=t23
三立都會,http://sc2022.stream-link.org/tv2306.php?id=t24
天才衝衝衝,http://sc2022.stream-link.org/tv2306.php?id=t25
東森yoyo,http://sc2022.stream-link.org/tv2306.php?id=t26 

测试,#genre#
凤凰中文台,http://php.17186.eu.org/phtv/fhzw.m3u8
凤凰资讯台,http://php.17186.eu.org/phtv/fhzx.m3u8
凤凰香港台,http://php.17186.eu.org/phtv/fhxg.m3u8
凤凰资讯,http://113.117.74.28:8081/hls/36/index.m3u8
凤凰中文,http://113.117.74.28:8081/hls/37/index.m3u8
凤凰香港,http://113.117.74.28:8081/hls/38/index.m3u8
凤凰中文,https://i.125011.xyz/fhx.php?id=fhzw
凤凰中文,http://38.207.160.104:11012/live.php?date=231119&id=phtv-cn
凤凰资讯,https://i.125011.xyz/fhx.php?id=fhzx
凤凰资讯,http://38.207.160.104:11012/live.php?date=231119&id=phtv-info
凤凰香港,https://i.125011.xyz/fhx.php?id=fhhk
香港卫视,http://zhibo.hkstv.tv/livestream/mutfysrq.flv?$官源 576P
香港卫视文旅台,http://ali-play.lezhibo.com/lezhibo/6ad788f1bbab4c689ecdc0d64a1e1601.m3u8?$官源 720P
翡翠台,http://nas.jdshipin.com:8801/gdfc720.php?$rad GD 720P
翡翠台,http://r.jdshipin.com/qClQf?$rad GD 1080P
翡翠台,http://38.207.160.104:11012/live.php?date=231119&id=feicui
翡翠台,http://r.jdshipin.com/62WM7?$rad 1080P
明珠台,http://r.jdshipin.com/ZQ4kN?$rad GD 1080P
明珠台,http://38.207.160.104:11012/live.php?date=231119&id=pearl
J2,http://38.207.160.104:11012/live.php?date=231119&id=j2
J2,http://r.jdshipin.com/Nr5jq?$rad 1080P
TVB星河,http://38.207.160.104:11012/live.php?date=231119&id=tvb-xinghe
TVB华语剧,http://38.207.160.104:11012/live.php?date=231119&id=tvb-drama
TVB经典台,http://38.207.160.104:11012/live.php?date=231119&id=tvb-classic
TVB亚洲剧,http://38.207.160.104:11012/live.php?date=231119&id=tvb-asia-drama
TVB娱乐新闻,http://38.207.160.104:11012/live.php?date=231119&id=TVB ylxw
TVB粤语片,http://38.207.160.104:11012/live.php?date=231119&id=tvb-yueyu
无线新闻,http://38.207.160.104:11012/live.php?date=231119&id=tvb-news
无线新闻,https://i.125011.xyz/tvb.php?id=0&hq
无线财经,https://i.125011.xyz/sat.php?ip=&id=hk011
无线财经,https://i.125011.xyz/sat.php?ip=&id=hk031
无线财经,http://38.207.160.104:11012/live.php?date=231119&id=tvb-finance
无线财经,https://i.125011.xyz/tvb.php?id=2&hq
有线18,https://i.125011.xyz/sat.php?ip=&id=hk021
HOY TV,http://38.207.160.104:11012/live.php?date=231119&id=hoytv
HOY 资讯,http://38.207.160.104:11012/live.php?date=231119&id=hoy-info
Now 新闻,http://38.207.160.104:11012/live.php?date=231119&id=now-news
Viu TV,http://38.207.160.104:11012/live.php?date=231119&id=viutv
Viu TV,http://r.jdshipin.com/vSJvl?$rad yeslive 1080P
Viu TV 6,http://38.207.160.104:11012/live.php?date=231119&id=viutv6
环球电视台,http://zb.xzxwhcb.com:9999/hls/world.m3u8?$未知 720P
港台电视31,https://rthktv31-live.akamaized.net/hls/live/2036818/RTHKTV31/stream1/streamPlaylist.m3u8?$未知 720P
港台电视31,https://rthktv31-live.akamaized.net/hls/live/2036818/RTHKTV31/stream5/streamPlaylist.m3u8?$未知 1080P
港台电视31,http://38.207.160.104:11012/live.php?date=231119&id=rthk31
港台电视32,https://rthktv32-live.akamaized.net/hls/live/2036819/RTHKTV32/stream1/streamPlaylist.m3u8?$未知 720P
港台电视32,https://rthktv32-live.akamaized.net/hls/live/2036819/RTHKTV32/stream5/streamPlaylist.m3u8?$未知 1080P
港台电视32,http://38.207.160.104:11012/live.php?date=231119&id=rthk32
港台电视33,https://rthktv33-live.akamaized.net/hls/live/2101641/RTHKTV33/stream04/streamPlaylist.m3u8?$未知 720P
港台电视33,https://rthktv33-live.akamaized.net/hls/live/2101641/RTHKTV33/stream05/streamPlaylist.m3u8?$未知 1080P
港台电视34,https://rthktv34-live.akamaized.net/hls/live/2101642/RTHKTV34/stream04/streamPlaylist.m3u8?$未知 720P
港台电视34,https://rthktv34-live.akamaized.net/hls/live/2101642/RTHKTV34/stream05/streamPlaylist.m3u8?$未知 1080P
港台电视35,https://rthktv35-live.akamaized.net/hls/live/2101643/RTHKTV35/stream04/streamPlaylist.m3u8?$未知 720P
港台电视35,https://rthktv35-live.akamaized.net/hls/live/2101643/RTHKTV35/stream05/streamPlaylist.m3u8?$未知 1080P
耀才财经,http://202.69.67.66:443/webcast/bshdlive-pc/playlist.m3u8?未知 576P
澳门莲花,http://p.ggiptv.com/v/macaulotustv.php?$未知 1080P
澳亚卫视,https://live.mastvnet.com/lsdream/lY44pmm/2000/live.m3u8?$未知 480P
中天新闻,http://38.207.160.104:11012/live.php?date=231119&id=cti-news
TVBS,http://38.207.160.104:11012/live.php?date=231119&id=tvbs-hd
TVBS新闻,https://i.125011.xyz/sat.php?ip=&id=tv551
TVBS新闻,http://38.207.160.104:11012/live.php?date=231119&id=tvbs-news
东森新闻,http://38.207.160.104:11012/live.php?date=231119&id=ebc-news
台视新闻,http://38.207.160.104:11012/live.php?date=231119&id=ttv-news
中视新闻,http://38.207.160.104:11012/live.php?date=231119&id=ctv-news
非凡新闻,http://38.207.160.104:11012/live.php?date=231119&id=ustv-news
寰宇新闻,http://38.207.160.104:11012/live.php?date=231119&id=global-news
年代新闻,http://38.207.160.104:11012/live.php?date=231119&id=era-news
镜新闻,http://38.207.160.104:11012/live.php?date=231119&id=mnews
壹新闻,http://38.207.160.104:11012/live.php?date=231119&id=nexttv
东森财经,https://i.125011.xyz/sat.php?ip=&id=tv571
东森财经,http://38.207.160.104:11012/live.php?date=231119&id=ebc-finance
华视,https://i.125011.xyz/sat.php?ip=&id=tv111
华视,http://38.207.160.104:11012/live.php?date=231119&id=cts
民视,https://i.125011.xyz/sat.php?ip=&id=tv051
台视,https://i.125011.xyz/sat.php?ip=&id=tv071
台视,http://38.207.160.104:11012/live.php?date=231119&id=ttv
中视,https://i.125011.xyz/sat.php?ip=&id=tv091
中视,http://38.207.160.104:11012/live.php?date=231119&id=ctv
TVBS欢乐,https://i.125011.xyz/sat.php?ip=&id=tv421
TVBS欢乐,http://38.207.160.104:11012/live.php?date=231119&id=tvbs-huanle
东森超视,https://i.125011.xyz/sat.php?ip=&id=tv331
东森超视,http://38.207.160.104:11012/live.php?date=231119&id=ebc-supertv
东森综合,http://38.207.160.104:11012/live.php?date=231119&id=ebc-ettv
三立都会,http://sanlihalive1-a.akamaihd.net/4c3bb0ccad574d0e9b507c2dcd2dfabc/ap-northeast-1/4338955585001/profile_0/chunklist.m3u8?hdnea=st=1664678487~exp=9007200919419478~acl=/4c3bb0ccad574d0e9b507c2dcd2dfabc/*/profile_0/chunklist.m3u8*~hmac=1a3986bd8fb660eacbcc9954c67fb674fa810779ddc2fab5fa77188868ca3686&$未知 1080P
三立台湾,http://sanlihalive1-a.akamaihd.net/5ffd3a166f7241d9b489b7d7241db96f/ap-northeast-1/4338955585001/profile_0/chunklist.m3u8?hdnea=st=1664042391~exp=9007200918783382~acl=/5ffd3a166f7241d9b489b7d7241db96f/*/profile_0/chunklist.m3u8*~hmac=29538a1877a3c3728afe61bcd55b5a7b98f517bb3e2c75f8433b9338fda5b3e3&$未知 1080P
三立台湾,http://sanlihalive1-a.akamaihd.net/5ffd3a166f7241d9b489b7d7241db96f/ap-northeast-1/4338955585001/profile_0/chunklist.m3u8?hdnea=st=1664678506~exp=9007200919419497~acl=/5ffd3a166f7241d9b489b7d7241db96f/*/profile_0/chunklist.m3u8*~hmac=cfd432e7da8eece68fe4a4da3a3bc08ab1bbc50b147a84c95ae3d4a569e932b1&$未知 1080P

